Magnetism/harhava/data/high/Harhava_material2_2sheet_8_space_high.csv

Record Length,2500,Points,-49.99999702E-3,-16.8000011,,Record Length,2500,Points,-49.99999702E-3,-2.5599999,
Sample Interval,39.99999899E-6,s,-49.95999858E-3,-16.0000000,,Sample Interval,39.99999899E-6,s,-49.95999858E-3,-2.5599999,
Trigger Point,1.2500000E3,Samples,-49.91999641E-3,-15.1999998,,Trigger Point,1.2500000E3,Samples,-49.91999641E-3,-2.5599999,
,,,-49.87999797E-3,-14.4000006,,,,,-49.87999797E-3,-2.5599999,
,,,-49.83999580E-3,-14.4000006,,,,,-49.83999580E-3,-2.4800000,
,,,-49.79999736E-3,-13.6000004,,,,,-49.79999736E-3,-2.4800000,
Source,CH1,,-49.75999519E-3,-12.8000002,,Source,CH2,,-49.75999519E-3,-2.3999999,
Vertical Units,Volts,,-49.71999675E-3,-12.8000002,,Vertical Units,Volts,,-49.71999675E-3,-2.3999999,
Vertical Scale,20.0000003,,-49.67999831E-3,-12.0000000,,Vertical Scale,2.0000000,,-49.67999831E-3,-2.3199999,
Vertical Offset,0,,-49.63999614E-3,-12.0000000,,Vertical Offset,0,,-49.63999614E-3,-2.3999999,
Horizontal Units,s,,-49.59999770E-3,-11.1999998,,Horizontal Units,s,,-49.59999770E-3,-2.3199999,
Horizontal Scale,9.999999747E-3,,-49.55999553E-3,-10.4000006,,Horizontal Scale,9.999999747E-3,,-49.55999553E-3,-2.2400000,
Pt Fmt,Y,,-49.51999709E-3,-9.600000381,,Pt Fmt,Y,,-49.51999709E-3,-2.2400000,
Yzero,0.0,,-49.47999865E-3,-8.800000191,,Yzero,0.0,,-49.47999865E-3,-2.1599998,
Probe Atten,10.0000000,,-49.43999648E-3,-8.000000000,,Probe Atten,10.0000000,,-49.43999648E-3,-2.1599998,
,,,-49.39999804E-3,-8.000000000,,,,,-49.39999804E-3,-2.1599998,
Note,TBS 1052B-EDU - 17:39:37   27/11/2024,,-49.35999587E-3,-7.20000029,,Note,TBS 1052B-EDU - 17:39:37   27/11/2024,,-49.35999587E-3,-2.0799999,
,,,-49.31999743E-3,-6.40000010,,,,,-49.31999743E-3,-2.0799999,
,,,-49.27999526E-3,-6.40000010,,,,,-49.27999526E-3,-2.0000000,
,,,-49.23999682E-3,-4.80000019,,,,,-49.23999682E-3,-2.0000000,
,,,-49.19999838E-3,-4.80000019,,,,,-49.19999838E-3,-1.9200000,
,,,-49.15999621E-3,-4.80000019,,,,,-49.15999621E-3,-1.9200000,
,,,-49.11999777E-3,-4.00000000,,,,,-49.11999777E-3,-1.8399999,
,,,-49.07999560E-3,-3.20000005,,,,,-49.07999560E-3,-1.8399999,
,,,-49.03999716E-3,-2.4000001,,,,,-49.03999716E-3,-1.8399999,
,,,-48.99999872E-3,-2.4000001,,,,,-48.99999872E-3,-1.7600000,
,,,-48.95999655E-3,-1.6000000,,,,,-48.95999655E-3,-1.7600000,
,,,-48.91999811E-3,-1.6000000,,,,,-48.91999811E-3,-1.6799999,
,,,-48.87999594E-3,-800.000011921E-3,,,,,-48.87999594E-3,-1.5999999,
,,,-48.83999750E-3,0.0,,,,,-48.83999750E-3,-1.5200000,
,,,-48.79999533E-3,0.0,,,,,-48.79999533E-3,-1.5200000,
,,,-48.75999689E-3,800.000011921E-3,,,,,-48.75999689E-3,-1.4399999,
,,,-48.71999845E-3,1.6000000,,,,,-48.71999845E-3,-1.4399999,
,,,-48.67999628E-3,1.6000000,,,,,-48.67999628E-3,-1.3600000,
,,,-48.63999784E-3,2.4000001,,,,,-48.63999784E-3,-1.2800000,
,,,-48.59999567E-3,3.20000005,,,,,-48.59999567E-3,-1.2800000,
,,,-48.55999723E-3,3.20000005,,,,,-48.55999723E-3,-1.1200000,
,,,-48.51999879E-3,3.20000005,,,,,-48.51999879E-3,-1.1999999,
,,,-48.47999662E-3,4.00000000,,,,,-48.47999662E-3,-1.1200000,
,,,-48.43999818E-3,4.00000000,,,,,-48.43999818E-3,-1.1200000,
,,,-48.39999601E-3,4.80000019,,,,,-48.39999601E-3,-1.0400000,
,,,-48.35999757E-3,5.59999990,,,,,-48.35999757E-3,-959.999978542E-3,
,,,-48.31999540E-3,5.59999990,,,,,-48.31999540E-3,-879.999995232E-3,
,,,-48.27999696E-3,6.40000010,,,,,-48.27999696E-3,-879.999995232E-3,
,,,-48.23999852E-3,6.40000010,,,,,-48.23999852E-3,-799.999952316E-3,
,,,-48.19999635E-3,6.40000010,,,,,-48.19999635E-3,-719.999969006E-3,
,,,-48.15999791E-3,7.20000029,,,,,-48.15999791E-3,-639.999985695E-3,
,,,-48.11999574E-3,7.20000029,,,,,-48.11999574E-3,-560.000002384E-3,
,,,-48.07999730E-3,7.20000029,,,,,-48.07999730E-3,-479.999989271E-3,
,,,-48.03999886E-3,8.000000000,,,,,-48.03999886E-3,-399.99997616E-3,
,,,-47.99999669E-3,8.000000000,,,,,-47.99999669E-3,-399.99997616E-3,
,,,-47.95999825E-3,8.000000000,,,,,-47.95999825E-3,-319.99999285E-3,
,,,-47.91999608E-3,8.800000191,,,,,-47.91999608E-3,-239.99999464E-3,
,,,-47.87999764E-3,8.800000191,,,,,-47.87999764E-3,-159.99999642E-3,
,,,-47.83999547E-3,9.600000381,,,,,-47.83999547E-3,-79.999998212E-3,
,,,-47.79999703E-3,9.600000381,,,,,-47.79999703E-3,0.0,
,,,-47.75999859E-3,9.600000381,,,,,-47.75999859E-3,79.999998212E-3,
,,,-47.71999642E-3,10.4000006,,,,,-47.71999642E-3,159.99999642E-3,
,,,-47.67999798E-3,9.600000381,,,,,-47.67999798E-3,239.99999464E-3,
,,,-47.63999581E-3,10.4000006,,,,,-47.63999581E-3,239.99999464E-3,
,,,-47.59999737E-3,10.4000006,,,,,-47.59999737E-3,399.99997616E-3,
,,,-47.55999893E-3,11.1999998,,,,,-47.55999893E-3,399.99997616E-3,
,,,-47.51999676E-3,11.1999998,,,,,-47.51999676E-3,479.999989271E-3,
,,,-47.47999832E-3,12.0000000,,,,,-47.47999832E-3,560.000002384E-3,
,,,-47.43999615E-3,12.0000000,,,,,-47.43999615E-3,719.999969006E-3,
,,,-47.39999771E-3,12.0000000,,,,,-47.39999771E-3,719.999969006E-3,
,,,-47.35999554E-3,12.8000002,,,,,-47.35999554E-3,799.999952316E-3,
,,,-47.31999710E-3,12.8000002,,,,,-47.31999710E-3,879.999995232E-3,
,,,-47.27999866E-3,12.8000002,,,,,-47.27999866E-3,959.999978542E-3,
,,,-47.23999649E-3,12.8000002,,,,,-47.23999649E-3,1.0400000,
,,,-47.19999805E-3,13.6000004,,,,,-47.19999805E-3,1.1200000,
,,,-47.15999588E-3,13.6000004,,,,,-47.15999588E-3,1.2800000,
,,,-47.11999744E-3,14.4000006,,,,,-47.11999744E-3,1.2800000,
,,,-47.07999527E-3,14.4000006,,,,,-47.07999527E-3,1.2800000,
,,,-47.03999683E-3,14.4000006,,,,,-47.03999683E-3,1.4399999,
,,,-46.99999839E-3,15.1999998,,,,,-46.99999839E-3,1.5200000,
,,,-46.95999622E-3,15.1999998,,,,,-46.95999622E-3,1.6799999,
,,,-46.91999778E-3,16.0000000,,,,,-46.91999778E-3,1.6799999,
,,,-46.87999561E-3,16.0000000,,,,,-46.87999561E-3,1.7600000,
,,,-46.83999717E-3,16.8000011,,,,,-46.83999717E-3,1.8399999,
,,,-46.79999873E-3,16.8000011,,,,,-46.79999873E-3,1.8399999,
,,,-46.75999656E-3,17.6000004,,,,,-46.75999656E-3,1.9200000,
,,,-46.71999812E-3,17.6000004,,,,,-46.71999812E-3,2.0000000,
,,,-46.67999595E-3,18.3999996,,,,,-46.67999595E-3,2.0799999,
,,,-46.63999751E-3,18.3999996,,,,,-46.63999751E-3,2.0799999,
,,,-46.59999534E-3,19.2000008,,,,,-46.59999534E-3,2.1599998,
,,,-46.55999690E-3,20.0000000,,,,,-46.55999690E-3,2.2400000,
,,,-46.51999846E-3,20.80000114,,,,,-46.51999846E-3,2.2400000,
,,,-46.47999629E-3,21.60000038,,,,,-46.47999629E-3,2.3199999,
,,,-46.43999785E-3,21.60000038,,,,,-46.43999785E-3,2.3999999,
,,,-46.39999568E-3,22.39999962,,,,,-46.39999568E-3,2.3999999,
,,,-46.35999724E-3,23.20000076,,,,,-46.35999724E-3,2.4800000,
,,,-46.31999880E-3,24.00000000,,,,,-46.31999880E-3,2.4800000,
,,,-46.27999663E-3,24.80000114,,,,,-46.27999663E-3,2.5599999,
,,,-46.23999819E-3,24.80000114,,,,,-46.23999819E-3,2.5599999,
,,,-46.19999602E-3,25.60000038,,,,,-46.19999602E-3,2.6399999,
,,,-46.15999758E-3,26.39999962,,,,,-46.15999758E-3,2.6399999,
,,,-46.11999542E-3,27.20000076,,,,,-46.11999542E-3,2.72000003,
,,,-46.07999697E-3,27.20000076,,,,,-46.07999697E-3,2.72000003,
,,,-46.03999853E-3,28.00000000,,,,,-46.03999853E-3,2.72000003,
,,,-45.99999636E-3,28.80000114,,,,,-45.99999636E-3,2.79999995,
,,,-45.95999792E-3,28.80000114,,,,,-45.95999792E-3,2.79999995,
,,,-45.91999575E-3,29.60000038,,,,,-45.91999575E-3,2.79999995,
,,,-45.87999731E-3,30.39999962,,,,,-45.87999731E-3,2.87999988,
,,,-45.83999887E-3,31.20000076,,,,,-45.83999887E-3,2.87999988,
,,,-45.79999670E-3,31.20000076,,,,,-45.79999670E-3,2.87999988,
,,,-45.75999826E-3,32.00000000,,,,,-45.75999826E-3,3.03999996,
,,,-45.71999609E-3,32.79999924,,,,,-45.71999609E-3,2.96000004,
,,,-45.67999765E-3,32.79999924,,,,,-45.67999765E-3,3.03999996,
,,,-45.63999549E-3,33.60000229,,,,,-45.63999549E-3,3.03999996,
,,,-45.59999704E-3,34.40000153,,,,,-45.59999704E-3,3.03999996,
,,,-45.55999860E-3,35.20000076,,,,,-45.55999860E-3,3.19999981,
,,,-45.51999643E-3,35.20000076,,,,,-45.51999643E-3,3.03999996,
,,,-45.47999799E-3,36.00000000,,,,,-45.47999799E-3,3.11999989,
,,,-45.43999583E-3,36.00000000,,,,,-45.43999583E-3,3.19999981,
,,,-45.39999738E-3,36.79999924,,,,,-45.39999738E-3,3.19999981,
,,,-45.35999894E-3,37.60000229,,,,,-45.35999894E-3,3.19999981,
,,,-45.31999677E-3,38.40000153,,,,,-45.31999677E-3,3.27999997,
,,,-45.27999833E-3,38.40000153,,,,,-45.27999833E-3,3.27999997,
,,,-45.23999617E-3,39.20000076,,,,,-45.23999617E-3,3.35999990,
,,,-45.19999772E-3,39.20000076,,,,,-45.19999772E-3,3.35999990,
,,,-45.15999556E-3,40.00000000,,,,,-45.15999556E-3,3.35999990,
,,,-45.11999711E-3,40.79999924,,,,,-45.11999711E-3,3.35999990,
,,,-45.07999867E-3,40.79999924,,,,,-45.07999867E-3,3.35999990,
,,,-45.03999650E-3,40.79999924,,,,,-45.03999650E-3,3.27999997,
,,,-44.99999806E-3,41.60000229,,,,,-44.99999806E-3,3.43999982,
,,,-44.95999590E-3,42.40000153,,,,,-44.95999590E-3,3.35999990,
,,,-44.91999745E-3,42.40000153,,,,,-44.91999745E-3,3.43999982,
,,,-44.87999529E-3,42.40000153,,,,,-44.87999529E-3,3.43999982,
,,,-44.83999684E-3,43.20000076,,,,,-44.83999684E-3,3.51999998,
,,,-44.79999840E-3,43.20000076,,,,,-44.79999840E-3,3.51999998,
,,,-44.75999624E-3,44.00000000,,,,,-44.75999624E-3,3.51999998,
,,,-44.71999779E-3,44.00000000,,,,,-44.71999779E-3,3.51999998,
,,,-44.67999563E-3,44.79999924,,,,,-44.67999563E-3,3.51999998,
,,,-44.63999718E-3,44.79999924,,,,,-44.63999718E-3,3.59999990,
,,,-44.59999874E-3,45.60000229,,,,,-44.59999874E-3,3.59999990,
,,,-44.55999658E-3,45.60000229,,,,,-44.55999658E-3,3.59999990,
,,,-44.51999813E-3,45.60000229,,,,,-44.51999813E-3,3.59999990,
,,,-44.47999597E-3,46.40000153,,,,,-44.47999597E-3,3.59999990,
,,,-44.43999752E-3,46.40000153,,,,,-44.43999752E-3,3.67999983,
,,,-44.39999536E-3,47.20000076,,,,,-44.39999536E-3,3.67999983,
,,,-44.35999691E-3,47.20000076,,,,,-44.35999691E-3,3.67999983,
,,,-44.31999847E-3,48.00000000,,,,,-44.31999847E-3,3.67999983,
,,,-44.27999631E-3,48.00000000,,,,,-44.27999631E-3,3.59999990,
,,,-44.23999786E-3,47.20000076,,,,,-44.23999786E-3,3.67999983,
,,,-44.19999570E-3,48.00000000,,,,,-44.19999570E-3,3.67999983,
,,,-44.15999725E-3,48.79999924,,,,,-44.15999725E-3,3.67999983,
,,,-44.11999881E-3,48.79999924,,,,,-44.11999881E-3,3.75999999,
,,,-44.07999665E-3,48.79999924,,,,,-44.07999665E-3,3.67999983,
,,,-44.03999820E-3,48.79999924,,,,,-44.03999820E-3,3.67999983,
,,,-43.99999604E-3,48.79999924,,,,,-43.99999604E-3,3.59999990,
,,,-43.95999759E-3,48.79999924,,,,,-43.95999759E-3,3.75999999,
,,,-43.91999543E-3,48.79999924,,,,,-43.91999543E-3,3.67999983,
,,,-43.87999699E-3,49.60000229,,,,,-43.87999699E-3,3.67999983,
,,,-43.83999854E-3,49.60000229,,,,,-43.83999854E-3,3.75999999,
,,,-43.79999638E-3,49.60000229,,,,,-43.79999638E-3,3.67999983,
,,,-43.75999793E-3,49.60000229,,,,,-43.75999793E-3,3.75999999,
,,,-43.71999577E-3,49.60000229,,,,,-43.71999577E-3,3.75999999,
,,,-43.67999732E-3,49.60000229,,,,,-43.67999732E-3,3.67999983,
,,,-43.63999888E-3,49.60000229,,,,,-43.63999888E-3,3.75999999,
,,,-43.59999672E-3,49.60000229,,,,,-43.59999672E-3,3.75999999,
,,,-43.55999827E-3,49.60000229,,,,,-43.55999827E-3,3.75999999,
,,,-43.51999611E-3,49.60000229,,,,,-43.51999611E-3,3.75999999,
,,,-43.47999766E-3,49.60000229,,,,,-43.47999766E-3,3.75999999,
,,,-43.43999550E-3,49.60000229,,,,,-43.43999550E-3,3.75999999,
,,,-43.39999706E-3,49.60000229,,,,,-43.39999706E-3,3.75999999,
,,,-43.35999861E-3,50.40000153,,,,,-43.35999861E-3,3.75999999,
,,,-43.31999645E-3,49.60000229,,,,,-43.31999645E-3,3.75999999,
,,,-43.27999800E-3,49.60000229,,,,,-43.27999800E-3,3.67999983,
,,,-43.23999584E-3,49.60000229,,,,,-43.23999584E-3,3.75999999,
,,,-43.19999740E-3,49.60000229,,,,,-43.19999740E-3,3.75999999,
,,,-43.15999895E-3,49.60000229,,,,,-43.15999895E-3,3.67999983,
,,,-43.11999679E-3,49.60000229,,,,,-43.11999679E-3,3.75999999,
,,,-43.07999834E-3,49.60000229,,,,,-43.07999834E-3,3.75999999,
,,,-43.03999618E-3,48.79999924,,,,,-43.03999618E-3,3.67999983,
,,,-42.99999774E-3,48.79999924,,,,,-42.99999774E-3,3.75999999,
,,,-42.95999557E-3,48.79999924,,,,,-42.95999557E-3,3.75999999,
,,,-42.91999713E-3,48.79999924,,,,,-42.91999713E-3,3.67999983,
,,,-42.87999868E-3,48.79999924,,,,,-42.87999868E-3,3.67999983,
,,,-42.83999652E-3,48.00000000,,,,,-42.83999652E-3,3.67999983,
,,,-42.79999807E-3,48.00000000,,,,,-42.79999807E-3,3.67999983,
,,,-42.75999591E-3,48.00000000,,,,,-42.75999591E-3,3.67999983,
,,,-42.71999747E-3,47.20000076,,,,,-42.71999747E-3,3.67999983,
,,,-42.67999902E-3,47.20000076,,,,,-42.67999902E-3,3.67999983,
,,,-42.63999686E-3,47.20000076,,,,,-42.63999686E-3,3.67999983,
,,,-42.59999841E-3,46.40000153,,,,,-42.59999841E-3,3.67999983,
,,,-42.55999625E-3,47.20000076,,,,,-42.55999625E-3,3.67999983,
,,,-42.51999781E-3,46.40000153,,,,,-42.51999781E-3,3.67999983,
,,,-42.47999564E-3,46.40000153,,,,,-42.47999564E-3,3.59999990,
,,,-42.43999720E-3,45.60000229,,,,,-42.43999720E-3,3.67999983,
,,,-42.39999875E-3,45.60000229,,,,,-42.39999875E-3,3.67999983,
,,,-42.35999659E-3,45.60000229,,,,,-42.35999659E-3,3.67999983,
,,,-42.31999815E-3,44.79999924,,,,,-42.31999815E-3,3.59999990,
,,,-42.27999598E-3,44.00000000,,,,,-42.27999598E-3,3.59999990,
,,,-42.23999754E-3,44.00000000,,,,,-42.23999754E-3,3.59999990,
,,,-42.19999537E-3,44.00000000,,,,,-42.19999537E-3,3.59999990,
,,,-42.15999693E-3,44.00000000,,,,,-42.15999693E-3,3.59999990,
,,,-42.11999848E-3,43.20000076,,,,,-42.11999848E-3,3.59999990,
,,,-42.07999632E-3,43.20000076,,,,,-42.07999632E-3,3.51999998,
,,,-42.03999788E-3,42.40000153,,,,,-42.03999788E-3,3.59999990,
,,,-41.99999571E-3,42.40000153,,,,,-41.99999571E-3,3.59999990,
,,,-41.95999727E-3,41.60000229,,,,,-41.95999727E-3,3.59999990,
,,,-41.91999882E-3,41.60000229,,,,,-41.91999882E-3,3.59999990,
,,,-41.87999666E-3,40.79999924,,,,,-41.87999666E-3,3.51999998,
,,,-41.83999822E-3,40.79999924,,,,,-41.83999822E-3,3.51999998,
,,,-41.79999605E-3,40.00000000,,,,,-41.79999605E-3,3.51999998,
,,,-41.75999761E-3,40.00000000,,,,,-41.75999761E-3,3.51999998,
,,,-41.71999544E-3,39.20000076,,,,,-41.71999544E-3,3.51999998,
,,,-41.67999700E-3,39.20000076,,,,,-41.67999700E-3,3.51999998,
,,,-41.63999856E-3,38.40000153,,,,,-41.63999856E-3,3.51999998,
,,,-41.59999639E-3,38.40000153,,,,,-41.59999639E-3,3.51999998,
,,,-41.55999795E-3,37.60000229,,,,,-41.55999795E-3,3.43999982,
,,,-41.51999578E-3,37.60000229,,,,,-41.51999578E-3,3.35999990,
,,,-41.47999734E-3,36.79999924,,,,,-41.47999734E-3,3.35999990,
,,,-41.43999889E-3,36.00000000,,,,,-41.43999889E-3,3.35999990,
,,,-41.39999673E-3,36.00000000,,,,,-41.39999673E-3,3.43999982,
,,,-41.35999829E-3,36.00000000,,,,,-41.35999829E-3,3.35999990,
,,,-41.31999612E-3,35.20000076,,,,,-41.31999612E-3,3.27999997,
,,,-41.27999768E-3,34.40000153,,,,,-41.27999768E-3,3.35999990,
,,,-41.23999551E-3,33.60000229,,,,,-41.23999551E-3,3.35999990,
,,,-41.19999707E-3,33.60000229,,,,,-41.19999707E-3,3.19999981,
,,,-41.15999863E-3,33.60000229,,,,,-41.15999863E-3,3.35999990,
,,,-41.11999646E-3,32.79999924,,,,,-41.11999646E-3,3.27999997,
,,,-41.07999802E-3,32.00000000,,,,,-41.07999802E-3,3.19999981,
,,,-41.03999585E-3,32.00000000,,,,,-41.03999585E-3,3.27999997,
,,,-40.99999741E-3,31.20000076,,,,,-40.99999741E-3,3.19999981,
,,,-40.95999897E-3,31.20000076,,,,,-40.95999897E-3,3.19999981,
,,,-40.91999680E-3,30.39999962,,,,,-40.91999680E-3,3.19999981,
,,,-40.87999836E-3,29.60000038,,,,,-40.87999836E-3,3.11999989,
,,,-40.83999619E-3,28.80000114,,,,,-40.83999619E-3,3.11999989,
,,,-40.79999775E-3,28.80000114,,,,,-40.79999775E-3,3.11999989,
,,,-40.75999558E-3,28.00000000,,,,,-40.75999558E-3,3.11999989,
,,,-40.71999714E-3,27.20000076,,,,,-40.71999714E-3,3.03999996,
,,,-40.67999870E-3,27.20000076,,,,,-40.67999870E-3,3.03999996,
,,,-40.63999653E-3,26.39999962,,,,,-40.63999653E-3,3.03999996,
,,,-40.59999809E-3,25.60000038,,,,,-40.59999809E-3,3.03999996,
,,,-40.55999592E-3,25.60000038,,,,,-40.55999592E-3,2.96000004,
,,,-40.51999748E-3,24.80000114,,,,,-40.51999748E-3,2.96000004,
,,,-40.47999904E-3,24.00000000,,,,,-40.47999904E-3,2.96000004,
,,,-40.43999687E-3,24.00000000,,,,,-40.43999687E-3,2.87999988,
,,,-40.39999843E-3,23.20000076,,,,,-40.39999843E-3,2.87999988,
,,,-40.35999626E-3,22.39999962,,,,,-40.35999626E-3,2.87999988,
,,,-40.31999782E-3,21.60000038,,,,,-40.31999782E-3,2.87999988,
,,,-40.27999565E-3,21.60000038,,,,,-40.27999565E-3,2.79999995,
,,,-40.23999721E-3,20.80000114,,,,,-40.23999721E-3,2.79999995,
,,,-40.19999877E-3,20.0000000,,,,,-40.19999877E-3,2.72000003,
,,,-40.15999660E-3,19.2000008,,,,,-40.15999660E-3,2.72000003,
,,,-40.11999816E-3,18.3999996,,,,,-40.11999816E-3,2.72000003,
,,,-40.07999599E-3,18.3999996,,,,,-40.07999599E-3,2.6399999,
,,,-40.03999755E-3,17.6000004,,,,,-40.03999755E-3,2.6399999,
,,,-39.99999911E-3,16.8000011,,,,,-39.99999911E-3,2.6399999,
,,,-39.95999694E-3,16.8000011,,,,,-39.95999694E-3,2.5599999,
,,,-39.91999850E-3,16.0000000,,,,,-39.91999850E-3,2.5599999,
,,,-39.87999633E-3,15.1999998,,,,,-39.87999633E-3,2.5599999,
,,,-39.83999789E-3,15.1999998,,,,,-39.83999789E-3,2.4800000,
,,,-39.79999572E-3,14.4000006,,,,,-39.79999572E-3,2.4800000,
,,,-39.75999728E-3,13.6000004,,,,,-39.75999728E-3,2.3999999,
,,,-39.71999884E-3,12.8000002,,,,,-39.71999884E-3,2.4800000,
,,,-39.67999667E-3,12.8000002,,,,,-39.67999667E-3,2.3999999,
,,,-39.63999823E-3,12.0000000,,,,,-39.63999823E-3,2.3199999,
,,,-39.59999606E-3,11.1999998,,,,,-39.59999606E-3,2.3199999,
,,,-39.55999762E-3,10.4000006,,,,,-39.55999762E-3,2.3199999,
,,,-39.51999545E-3,10.4000006,,,,,-39.51999545E-3,2.3199999,
,,,-39.47999701E-3,9.600000381,,,,,-39.47999701E-3,2.2400000,
,,,-39.43999857E-3,9.600000381,,,,,-39.43999857E-3,2.1599998,
,,,-39.39999640E-3,8.800000191,,,,,-39.39999640E-3,2.1599998,
,,,-39.35999796E-3,8.800000191,,,,,-39.35999796E-3,2.1599998,
,,,-39.31999579E-3,7.20000029,,,,,-39.31999579E-3,2.0799999,
,,,-39.27999735E-3,7.20000029,,,,,-39.27999735E-3,2.0799999,
,,,-39.23999891E-3,6.40000010,,,,,-39.23999891E-3,2.0000000,
,,,-39.19999674E-3,6.40000010,,,,,-39.19999674E-3,2.0000000,
,,,-39.15999830E-3,4.80000019,,,,,-39.15999830E-3,2.0000000,
,,,-39.11999613E-3,4.80000019,,,,,-39.11999613E-3,1.9200000,
,,,-39.07999769E-3,4.00000000,,,,,-39.07999769E-3,1.9200000,
,,,-39.03999552E-3,4.00000000,,,,,-39.03999552E-3,1.8399999,
,,,-38.99999708E-3,3.20000005,,,,,-38.99999708E-3,1.7600000,
,,,-38.95999864E-3,2.4000001,,,,,-38.95999864E-3,1.7600000,
,,,-38.91999647E-3,2.4000001,,,,,-38.91999647E-3,1.6799999,
,,,-38.87999803E-3,1.6000000,,,,,-38.87999803E-3,1.6799999,
,,,-38.83999586E-3,800.000011921E-3,,,,,-38.83999586E-3,1.5999999,
,,,-38.79999742E-3,800.000011921E-3,,,,,-38.79999742E-3,1.5999999,
,,,-38.75999898E-3,0.0,,,,,-38.75999898E-3,1.5200000,
,,,-38.71999681E-3,-800.000011921E-3,,,,,-38.71999681E-3,1.4399999,
,,,-38.67999837E-3,-1.6000000,,,,,-38.67999837E-3,1.4399999,
,,,-38.63999620E-3,-1.6000000,,,,,-38.63999620E-3,1.3600000,
,,,-38.59999776E-3,-1.6000000,,,,,-38.59999776E-3,1.2800000,
,,,-38.55999559E-3,-2.4000001,,,,,-38.55999559E-3,1.2800000,
,,,-38.51999715E-3,-2.4000001,,,,,-38.51999715E-3,1.1999999,
,,,-38.47999871E-3,-3.20000005,,,,,-38.47999871E-3,1.1999999,
,,,-38.43999654E-3,-3.20000005,,,,,-38.43999654E-3,1.1200000,
,,,-38.39999810E-3,-4.00000000,,,,,-38.39999810E-3,1.0400000,
,,,-38.35999593E-3,-4.00000000,,,,,-38.35999593E-3,959.999978542E-3,
,,,-38.31999749E-3,-4.80000019,,,,,-38.31999749E-3,879.999995232E-3,
,,,-38.27999905E-3,-5.59999990,,,,,-38.27999905E-3,879.999995232E-3,
,,,-38.23999688E-3,-5.59999990,,,,,-38.23999688E-3,799.999952316E-3,
,,,-38.19999844E-3,-5.59999990,,,,,-38.19999844E-3,719.999969006E-3,
,,,-38.15999627E-3,-6.40000010,,,,,-38.15999627E-3,719.999969006E-3,
,,,-38.11999783E-3,-6.40000010,,,,,-38.11999783E-3,639.999985695E-3,
,,,-38.07999566E-3,-7.20000029,,,,,-38.07999566E-3,560.000002384E-3,
,,,-38.03999722E-3,-7.20000029,,,,,-38.03999722E-3,479.999989271E-3,
,,,-37.99999878E-3,-7.20000029,,,,,-37.99999878E-3,479.999989271E-3,
,,,-37.95999661E-3,-8.000000000,,,,,-37.95999661E-3,399.99997616E-3,
,,,-37.91999817E-3,-8.000000000,,,,,-37.91999817E-3,319.99999285E-3,
,,,-37.87999600E-3,-8.000000000,,,,,-37.87999600E-3,239.99999464E-3,
,,,-37.83999756E-3,-8.800000191,,,,,-37.83999756E-3,159.99999642E-3,
,,,-37.79999912E-3,-8.800000191,,,,,-37.79999912E-3,79.999998212E-3,
,,,-37.75999695E-3,-8.800000191,,,,,-37.75999695E-3,0.0,
