Magnetism/harhava/data/high/Harhava_material5_2sheet_0_space_high.csv

Record Length,2500,Points,-50.40000007E-3,-1.6000000,,Record Length,2500,Points,-50.40000007E-3,4.59999990,
Sample Interval,39.99999899E-6,s,-50.36000162E-3,-1.6000000,,Sample Interval,39.99999899E-6,s,-50.36000162E-3,4.59999990,
Trigger Point,1.2600001E3,Samples,-50.31999946E-3,-1.6000000,,Trigger Point,1.2600001E3,Samples,-50.31999946E-3,4.59999990,
,,,-50.28000101E-3,-2.4000001,,,,,-50.28000101E-3,4.40000010,
,,,-50.23999885E-3,-2.4000001,,,,,-50.23999885E-3,4.59999990,
,,,-50.20000041E-3,-3.20000005,,,,,-50.20000041E-3,4.40000010,
Source,CH1,,-50.15999824E-3,-4.00000000,,Source,CH2,,-50.15999824E-3,4.20000029,
Vertical Units,Volts,,-50.11999980E-3,-4.00000000,,Vertical Units,Volts,,-50.11999980E-3,4.20000029,
Vertical Scale,20.0000003,,-50.08000135E-3,-4.00000000,,Vertical Scale,5.00000007,,-50.08000135E-3,4.20000029,
Vertical Offset,0,,-50.03999919E-3,-4.80000019,,Vertical Offset,0,,-50.03999919E-3,4.00000000,
Horizontal Units,s,,-50.00000075E-3,-4.80000019,,Horizontal Units,s,,-50.00000075E-3,4.00000000,
Horizontal Scale,9.999999747E-3,,-49.95999858E-3,-4.80000019,,Horizontal Scale,9.999999747E-3,,-49.95999858E-3,3.79999995,
Pt Fmt,Y,,-49.92000014E-3,-5.59999990,,Pt Fmt,Y,,-49.92000014E-3,3.79999995,
Yzero,-40.00000000E-3,,-49.88000169E-3,-5.59999990,,Yzero,-40.00000000E-3,,-49.88000169E-3,3.79999995,
Probe Atten,10.0000000,,-49.83999953E-3,-5.59999990,,Probe Atten,10.0000000,,-49.83999953E-3,3.79999995,
,,,-49.80000108E-3,-5.59999990,,,,,-49.80000108E-3,3.60000014,
Note,TBS 1052B-EDU - 18:17:23   04/12/2024,,-49.75999892E-3,-6.40000010,,Note,TBS 1052B-EDU - 18:17:23   04/12/2024,,-49.75999892E-3,3.40000010,
,,,-49.72000048E-3,-6.40000010,,,,,-49.72000048E-3,3.60000014,
,,,-49.67999831E-3,-6.40000010,,,,,-49.67999831E-3,3.20000005,
,,,-49.63999987E-3,-6.40000010,,,,,-49.63999987E-3,3.20000005,
,,,-49.60000142E-3,-7.20000029,,,,,-49.60000142E-3,3.00000000,
,,,-49.55999926E-3,-7.20000029,,,,,-49.55999926E-3,3.00000000,
,,,-49.52000082E-3,-7.20000029,,,,,-49.52000082E-3,3.00000000,
,,,-49.47999865E-3,-7.20000029,,,,,-49.47999865E-3,3.00000000,
,,,-49.44000021E-3,-8.000000000,,,,,-49.44000021E-3,2.6000001,
,,,-49.40000176E-3,-8.000000000,,,,,-49.40000176E-3,2.6000001,
,,,-49.35999960E-3,-8.000000000,,,,,-49.35999960E-3,2.6000001,
,,,-49.32000116E-3,-8.800000191,,,,,-49.32000116E-3,2.4000001,
,,,-49.27999899E-3,-8.800000191,,,,,-49.27999899E-3,2.4000001,
,,,-49.24000055E-3,-8.800000191,,,,,-49.24000055E-3,2.4000001,
,,,-49.19999838E-3,-8.800000191,,,,,-49.19999838E-3,2.0000000,
,,,-49.15999994E-3,-8.800000191,,,,,-49.15999994E-3,1.8000001,
,,,-49.12000149E-3,-8.800000191,,,,,-49.12000149E-3,1.8000001,
,,,-49.07999933E-3,-9.600000381,,,,,-49.07999933E-3,1.8000001,
,,,-49.04000089E-3,-9.600000381,,,,,-49.04000089E-3,1.8000001,
,,,-48.99999872E-3,-9.600000381,,,,,-48.99999872E-3,1.6000000,
,,,-48.96000028E-3,-9.600000381,,,,,-48.96000028E-3,1.4000000,
,,,-48.92000183E-3,-9.600000381,,,,,-48.92000183E-3,1.2000000,
,,,-48.87999967E-3,-10.4000006,,,,,-48.87999967E-3,1.2000000,
,,,-48.84000123E-3,-10.4000006,,,,,-48.84000123E-3,1.2000000,
,,,-48.79999906E-3,-10.4000006,,,,,-48.79999906E-3,1.000000,
,,,-48.76000062E-3,-10.4000006,,,,,-48.76000062E-3,800.000011921E-3,
,,,-48.71999845E-3,-11.1999998,,,,,-48.71999845E-3,800.000011921E-3,
,,,-48.68000001E-3,-11.1999998,,,,,-48.68000001E-3,600.000023842E-3,
,,,-48.64000157E-3,-11.1999998,,,,,-48.64000157E-3,400.00000596E-3,
,,,-48.59999940E-3,-11.1999998,,,,,-48.59999940E-3,600.000023842E-3,
,,,-48.56000096E-3,-11.1999998,,,,,-48.56000096E-3,400.00000596E-3,
,,,-48.51999879E-3,-12.0000000,,,,,-48.51999879E-3,200.00000298E-3,
,,,-48.48000035E-3,-11.1999998,,,,,-48.48000035E-3,0.0,
,,,-48.44000190E-3,-11.1999998,,,,,-48.44000190E-3,0.0,
,,,-48.39999974E-3,-12.0000000,,,,,-48.39999974E-3,-200.00000298E-3,
,,,-48.36000130E-3,-12.0000000,,,,,-48.36000130E-3,-200.00000298E-3,
,,,-48.31999913E-3,-12.0000000,,,,,-48.31999913E-3,-400.00000596E-3,
,,,-48.28000069E-3,-12.8000002,,,,,-48.28000069E-3,-400.00000596E-3,
,,,-48.23999852E-3,-12.0000000,,,,,-48.23999852E-3,-600.000023842E-3,
,,,-48.20000008E-3,-12.8000002,,,,,-48.20000008E-3,-800.000011921E-3,
,,,-48.16000164E-3,-12.8000002,,,,,-48.16000164E-3,-1.000000,
,,,-48.11999947E-3,-12.8000002,,,,,-48.11999947E-3,-1.000000,
,,,-48.08000103E-3,-12.8000002,,,,,-48.08000103E-3,-1.2000000,
,,,-48.03999886E-3,-12.8000002,,,,,-48.03999886E-3,-1.2000000,
,,,-48.00000042E-3,-12.8000002,,,,,-48.00000042E-3,-1.4000000,
,,,-47.96000198E-3,-13.6000004,,,,,-47.96000198E-3,-1.4000000,
,,,-47.91999981E-3,-13.6000004,,,,,-47.91999981E-3,-1.6000000,
,,,-47.88000137E-3,-13.6000004,,,,,-47.88000137E-3,-1.6000000,
,,,-47.83999920E-3,-14.4000006,,,,,-47.83999920E-3,-1.8000001,
,,,-47.80000076E-3,-13.6000004,,,,,-47.80000076E-3,-2.0000000,
,,,-47.75999859E-3,-14.4000006,,,,,-47.75999859E-3,-2.0000000,
,,,-47.72000015E-3,-13.6000004,,,,,-47.72000015E-3,-2.0000000,
,,,-47.68000171E-3,-14.4000006,,,,,-47.68000171E-3,-2.2000000,
,,,-47.63999954E-3,-14.4000006,,,,,-47.63999954E-3,-2.4000001,
,,,-47.60000110E-3,-14.4000006,,,,,-47.60000110E-3,-2.4000001,
,,,-47.55999893E-3,-15.1999998,,,,,-47.55999893E-3,-2.6000001,
,,,-47.52000049E-3,-15.1999998,,,,,-47.52000049E-3,-2.6000001,
,,,-47.47999832E-3,-15.1999998,,,,,-47.47999832E-3,-2.79999995,
,,,-47.43999988E-3,-15.1999998,,,,,-47.43999988E-3,-3.00000000,
,,,-47.40000144E-3,-15.1999998,,,,,-47.40000144E-3,-3.20000005,
,,,-47.35999927E-3,-15.1999998,,,,,-47.35999927E-3,-3.40000010,
,,,-47.32000083E-3,-15.1999998,,,,,-47.32000083E-3,-3.40000010,
,,,-47.27999866E-3,-16.0000000,,,,,-47.27999866E-3,-3.60000014,
,,,-47.24000022E-3,-16.0000000,,,,,-47.24000022E-3,-3.60000014,
,,,-47.20000178E-3,-16.0000000,,,,,-47.20000178E-3,-3.79999995,
,,,-47.15999961E-3,-16.0000000,,,,,-47.15999961E-3,-3.79999995,
,,,-47.12000117E-3,-16.0000000,,,,,-47.12000117E-3,-3.79999995,
,,,-47.07999900E-3,-16.8000011,,,,,-47.07999900E-3,-4.00000000,
,,,-47.04000056E-3,-16.8000011,,,,,-47.04000056E-3,-4.00000000,
,,,-46.99999839E-3,-16.8000011,,,,,-46.99999839E-3,-4.20000029,
,,,-46.95999995E-3,-16.8000011,,,,,-46.95999995E-3,-4.20000029,
,,,-46.92000151E-3,-17.6000004,,,,,-46.92000151E-3,-4.59999990,
,,,-46.87999934E-3,-16.8000011,,,,,-46.87999934E-3,-4.59999990,
,,,-46.84000090E-3,-17.6000004,,,,,-46.84000090E-3,-4.59999990,
,,,-46.79999873E-3,-17.6000004,,,,,-46.79999873E-3,-4.80000019,
,,,-46.76000029E-3,-18.3999996,,,,,-46.76000029E-3,-4.80000019,
,,,-46.72000185E-3,-18.3999996,,,,,-46.72000185E-3,-5.00000000,
,,,-46.67999968E-3,-18.3999996,,,,,-46.67999968E-3,-5.20000029,
,,,-46.64000124E-3,-18.3999996,,,,,-46.64000124E-3,-5.20000029,
,,,-46.59999907E-3,-19.2000008,,,,,-46.59999907E-3,-5.20000029,
,,,-46.56000063E-3,-19.2000008,,,,,-46.56000063E-3,-5.40000010,
,,,-46.51999846E-3,-20.0000000,,,,,-46.51999846E-3,-5.40000010,
,,,-46.48000002E-3,-20.0000000,,,,,-46.48000002E-3,-5.40000010,
,,,-46.44000158E-3,-20.80000114,,,,,-46.44000158E-3,-5.40000010,
,,,-46.39999941E-3,-20.80000114,,,,,-46.39999941E-3,-5.59999990,
,,,-46.36000097E-3,-21.60000038,,,,,-46.36000097E-3,-5.59999990,
,,,-46.31999880E-3,-22.39999962,,,,,-46.31999880E-3,-5.80000019,
,,,-46.28000036E-3,-22.39999962,,,,,-46.28000036E-3,-5.59999990,
,,,-46.24000192E-3,-23.20000076,,,,,-46.24000192E-3,-5.80000019,
,,,-46.19999975E-3,-24.00000000,,,,,-46.19999975E-3,-5.80000019,
,,,-46.16000131E-3,-24.00000000,,,,,-46.16000131E-3,-6.00000000,
,,,-46.11999914E-3,-24.80000114,,,,,-46.11999914E-3,-5.80000019,
,,,-46.08000070E-3,-24.80000114,,,,,-46.08000070E-3,-6.00000000,
,,,-46.03999853E-3,-25.60000038,,,,,-46.03999853E-3,-6.00000000,
,,,-46.00000009E-3,-27.20000076,,,,,-46.00000009E-3,-6.00000000,
,,,-45.96000165E-3,-27.20000076,,,,,-45.96000165E-3,-6.20000029,
,,,-45.91999948E-3,-28.00000000,,,,,-45.91999948E-3,-6.00000000,
,,,-45.88000104E-3,-28.00000000,,,,,-45.88000104E-3,-6.20000029,
,,,-45.83999887E-3,-28.80000114,,,,,-45.83999887E-3,-6.20000029,
,,,-45.80000043E-3,-29.60000038,,,,,-45.80000043E-3,-6.00000000,
,,,-45.76000199E-3,-29.60000038,,,,,-45.76000199E-3,-6.20000029,
,,,-45.71999982E-3,-30.39999962,,,,,-45.71999982E-3,-6.20000029,
,,,-45.68000138E-3,-30.39999962,,,,,-45.68000138E-3,-6.20000029,
,,,-45.63999921E-3,-31.20000076,,,,,-45.63999921E-3,-6.20000029,
,,,-45.60000077E-3,-32.00000000,,,,,-45.60000077E-3,-6.40000010,
,,,-45.55999860E-3,-32.00000000,,,,,-45.55999860E-3,-6.20000029,
,,,-45.52000016E-3,-32.79999924,,,,,-45.52000016E-3,-6.20000029,
,,,-45.48000172E-3,-32.79999924,,,,,-45.48000172E-3,-6.20000029,
,,,-45.43999955E-3,-33.60000229,,,,,-45.43999955E-3,-6.20000029,
,,,-45.40000111E-3,-34.40000153,,,,,-45.40000111E-3,-6.20000029,
,,,-45.35999894E-3,-35.20000076,,,,,-45.35999894E-3,-6.20000029,
,,,-45.32000050E-3,-35.20000076,,,,,-45.32000050E-3,-6.20000029,
,,,-45.28000206E-3,-35.20000076,,,,,-45.28000206E-3,-6.20000029,
,,,-45.23999989E-3,-35.20000076,,,,,-45.23999989E-3,-6.20000029,
,,,-45.20000145E-3,-35.20000076,,,,,-45.20000145E-3,-6.40000010,
,,,-45.15999928E-3,-36.00000000,,,,,-45.15999928E-3,-6.40000010,
,,,-45.12000084E-3,-36.00000000,,,,,-45.12000084E-3,-6.20000029,
,,,-45.07999867E-3,-36.79999924,,,,,-45.07999867E-3,-6.40000010,
,,,-45.04000023E-3,-36.79999924,,,,,-45.04000023E-3,-6.40000010,
,,,-45.00000179E-3,-36.79999924,,,,,-45.00000179E-3,-6.40000010,
,,,-44.95999962E-3,-36.79999924,,,,,-44.95999962E-3,-6.40000010,
,,,-44.92000118E-3,-37.60000229,,,,,-44.92000118E-3,-6.40000010,
,,,-44.87999901E-3,-37.60000229,,,,,-44.87999901E-3,-6.40000010,
,,,-44.84000057E-3,-37.60000229,,,,,-44.84000057E-3,-6.40000010,
,,,-44.79999840E-3,-37.60000229,,,,,-44.79999840E-3,-6.20000029,
,,,-44.75999996E-3,-37.60000229,,,,,-44.75999996E-3,-6.20000029,
,,,-44.72000152E-3,-37.60000229,,,,,-44.72000152E-3,-6.40000010,
,,,-44.67999935E-3,-38.40000153,,,,,-44.67999935E-3,-6.40000010,
,,,-44.64000091E-3,-38.40000153,,,,,-44.64000091E-3,-6.40000010,
,,,-44.59999874E-3,-38.40000153,,,,,-44.59999874E-3,-6.40000010,
,,,-44.56000030E-3,-38.40000153,,,,,-44.56000030E-3,-6.20000029,
,,,-44.52000186E-3,-38.40000153,,,,,-44.52000186E-3,-6.40000010,
,,,-44.47999969E-3,-38.40000153,,,,,-44.47999969E-3,-6.40000010,
,,,-44.44000125E-3,-38.40000153,,,,,-44.44000125E-3,-6.40000010,
,,,-44.39999908E-3,-38.40000153,,,,,-44.39999908E-3,-6.20000029,
,,,-44.36000064E-3,-37.60000229,,,,,-44.36000064E-3,-6.20000029,
,,,-44.31999847E-3,-38.40000153,,,,,-44.31999847E-3,-6.40000010,
,,,-44.28000003E-3,-38.40000153,,,,,-44.28000003E-3,-6.20000029,
,,,-44.24000159E-3,-38.40000153,,,,,-44.24000159E-3,-6.20000029,
,,,-44.19999942E-3,-37.60000229,,,,,-44.19999942E-3,-6.20000029,
,,,-44.16000098E-3,-37.60000229,,,,,-44.16000098E-3,-6.20000029,
,,,-44.11999881E-3,-37.60000229,,,,,-44.11999881E-3,-6.40000010,
,,,-44.08000037E-3,-37.60000229,,,,,-44.08000037E-3,-6.40000010,
,,,-44.04000193E-3,-37.60000229,,,,,-44.04000193E-3,-6.40000010,
,,,-43.99999976E-3,-37.60000229,,,,,-43.99999976E-3,-6.40000010,
,,,-43.96000132E-3,-37.60000229,,,,,-43.96000132E-3,-6.20000029,
,,,-43.91999915E-3,-37.60000229,,,,,-43.91999915E-3,-6.40000010,
,,,-43.88000071E-3,-36.79999924,,,,,-43.88000071E-3,-6.20000029,
,,,-43.83999854E-3,-37.60000229,,,,,-43.83999854E-3,-6.20000029,
,,,-43.80000010E-3,-36.79999924,,,,,-43.80000010E-3,-6.40000010,
,,,-43.76000166E-3,-36.00000000,,,,,-43.76000166E-3,-6.40000010,
,,,-43.71999949E-3,-36.79999924,,,,,-43.71999949E-3,-6.20000029,
,,,-43.68000105E-3,-36.00000000,,,,,-43.68000105E-3,-6.20000029,
,,,-43.63999888E-3,-36.00000000,,,,,-43.63999888E-3,-6.40000010,
,,,-43.60000044E-3,-36.00000000,,,,,-43.60000044E-3,-6.40000010,
,,,-43.56000200E-3,-35.20000076,,,,,-43.56000200E-3,-6.20000029,
,,,-43.51999983E-3,-35.20000076,,,,,-43.51999983E-3,-6.20000029,
,,,-43.48000139E-3,-35.20000076,,,,,-43.48000139E-3,-6.20000029,
,,,-43.43999922E-3,-35.20000076,,,,,-43.43999922E-3,-6.20000029,
,,,-43.40000078E-3,-34.40000153,,,,,-43.40000078E-3,-6.20000029,
,,,-43.35999861E-3,-34.40000153,,,,,-43.35999861E-3,-6.40000010,
,,,-43.32000017E-3,-33.60000229,,,,,-43.32000017E-3,-6.40000010,
,,,-43.28000173E-3,-32.79999924,,,,,-43.28000173E-3,-6.20000029,
,,,-43.23999956E-3,-32.79999924,,,,,-43.23999956E-3,-6.20000029,
,,,-43.20000112E-3,-32.00000000,,,,,-43.20000112E-3,-6.20000029,
,,,-43.15999895E-3,-32.00000000,,,,,-43.15999895E-3,-6.20000029,
,,,-43.12000051E-3,-32.00000000,,,,,-43.12000051E-3,-6.20000029,
,,,-43.08000207E-3,-31.20000076,,,,,-43.08000207E-3,-6.20000029,
,,,-43.03999990E-3,-31.20000076,,,,,-43.03999990E-3,-6.00000000,
,,,-43.00000146E-3,-30.39999962,,,,,-43.00000146E-3,-6.20000029,
,,,-42.95999929E-3,-30.39999962,,,,,-42.95999929E-3,-6.00000000,
,,,-42.92000085E-3,-29.60000038,,,,,-42.92000085E-3,-6.20000029,
,,,-42.87999868E-3,-29.60000038,,,,,-42.87999868E-3,-6.20000029,
,,,-42.84000024E-3,-28.80000114,,,,,-42.84000024E-3,-6.00000000,
,,,-42.80000180E-3,-28.80000114,,,,,-42.80000180E-3,-6.20000029,
,,,-42.75999963E-3,-28.00000000,,,,,-42.75999963E-3,-6.00000000,
,,,-42.72000119E-3,-27.20000076,,,,,-42.72000119E-3,-6.20000029,
,,,-42.67999902E-3,-27.20000076,,,,,-42.67999902E-3,-6.20000029,
,,,-42.64000058E-3,-26.39999962,,,,,-42.64000058E-3,-6.20000029,
,,,-42.59999841E-3,-26.39999962,,,,,-42.59999841E-3,-6.20000029,
,,,-42.55999997E-3,-26.39999962,,,,,-42.55999997E-3,-5.80000019,
,,,-42.52000153E-3,-24.80000114,,,,,-42.52000153E-3,-6.00000000,
,,,-42.47999936E-3,-24.80000114,,,,,-42.47999936E-3,-6.00000000,
,,,-42.44000092E-3,-24.80000114,,,,,-42.44000092E-3,-5.80000019,
,,,-42.39999875E-3,-24.00000000,,,,,-42.39999875E-3,-6.00000000,
,,,-42.36000031E-3,-23.20000076,,,,,-42.36000031E-3,-6.00000000,
,,,-42.32000187E-3,-22.39999962,,,,,-42.32000187E-3,-6.00000000,
,,,-42.27999970E-3,-21.60000038,,,,,-42.27999970E-3,-6.00000000,
,,,-42.24000126E-3,-21.60000038,,,,,-42.24000126E-3,-6.00000000,
,,,-42.19999909E-3,-20.80000114,,,,,-42.19999909E-3,-6.00000000,
,,,-42.16000065E-3,-20.0000000,,,,,-42.16000065E-3,-5.80000019,
,,,-42.11999848E-3,-20.0000000,,,,,-42.11999848E-3,-5.80000019,
,,,-42.08000004E-3,-19.2000008,,,,,-42.08000004E-3,-6.00000000,
,,,-42.04000160E-3,-19.2000008,,,,,-42.04000160E-3,-5.80000019,
,,,-41.99999943E-3,-18.3999996,,,,,-41.99999943E-3,-6.00000000,
,,,-41.96000099E-3,-17.6000004,,,,,-41.96000099E-3,-5.80000019,
,,,-41.91999882E-3,-17.6000004,,,,,-41.91999882E-3,-5.80000019,
,,,-41.88000038E-3,-16.8000011,,,,,-41.88000038E-3,-5.80000019,
,,,-41.84000194E-3,-16.0000000,,,,,-41.84000194E-3,-5.80000019,
,,,-41.79999977E-3,-15.1999998,,,,,-41.79999977E-3,-5.80000019,
,,,-41.76000133E-3,-15.1999998,,,,,-41.76000133E-3,-5.80000019,
,,,-41.71999916E-3,-14.4000006,,,,,-41.71999916E-3,-5.59999990,
,,,-41.68000072E-3,-13.6000004,,,,,-41.68000072E-3,-5.59999990,
,,,-41.63999856E-3,-12.8000002,,,,,-41.63999856E-3,-5.80000019,
,,,-41.60000011E-3,-12.8000002,,,,,-41.60000011E-3,-5.59999990,
,,,-41.56000167E-3,-12.0000000,,,,,-41.56000167E-3,-5.59999990,
,,,-41.51999950E-3,-11.1999998,,,,,-41.51999950E-3,-5.59999990,
,,,-41.48000106E-3,-11.1999998,,,,,-41.48000106E-3,-5.59999990,
,,,-41.43999889E-3,-10.4000006,,,,,-41.43999889E-3,-5.59999990,
,,,-41.40000045E-3,-9.600000381,,,,,-41.40000045E-3,-5.59999990,
,,,-41.36000201E-3,-8.800000191,,,,,-41.36000201E-3,-5.59999990,
,,,-41.31999984E-3,-8.800000191,,,,,-41.31999984E-3,-5.59999990,
,,,-41.28000140E-3,-8.000000000,,,,,-41.28000140E-3,-5.40000010,
,,,-41.23999923E-3,-7.20000029,,,,,-41.23999923E-3,-5.40000010,
,,,-41.20000079E-3,-7.20000029,,,,,-41.20000079E-3,-5.40000010,
,,,-41.15999863E-3,-6.40000010,,,,,-41.15999863E-3,-5.40000010,
,,,-41.12000018E-3,-5.59999990,,,,,-41.12000018E-3,-5.40000010,
,,,-41.08000174E-3,-4.80000019,,,,,-41.08000174E-3,-5.40000010,
,,,-41.03999957E-3,-4.80000019,,,,,-41.03999957E-3,-5.40000010,
,,,-41.00000113E-3,-4.00000000,,,,,-41.00000113E-3,-5.40000010,
,,,-40.95999897E-3,-4.00000000,,,,,-40.95999897E-3,-5.20000029,
,,,-40.92000052E-3,-3.20000005,,,,,-40.92000052E-3,-5.20000029,
,,,-40.88000208E-3,-2.4000001,,,,,-40.88000208E-3,-5.20000029,
,,,-40.83999991E-3,-2.4000001,,,,,-40.83999991E-3,-5.00000000,
,,,-40.80000147E-3,-1.6000000,,,,,-40.80000147E-3,-5.00000000,
,,,-40.75999931E-3,-1.6000000,,,,,-40.75999931E-3,-5.00000000,
,,,-40.72000086E-3,-800.000011921E-3,,,,,-40.72000086E-3,-5.00000000,
,,,-40.67999870E-3,-800.000011921E-3,,,,,-40.67999870E-3,-5.00000000,
,,,-40.64000025E-3,0.0,,,,,-40.64000025E-3,-5.00000000,
,,,-40.60000181E-3,0.0,,,,,-40.60000181E-3,-4.80000019,
,,,-40.55999964E-3,800.000011921E-3,,,,,-40.55999964E-3,-4.59999990,
,,,-40.52000120E-3,800.000011921E-3,,,,,-40.52000120E-3,-4.80000019,
,,,-40.47999904E-3,1.6000000,,,,,-40.47999904E-3,-4.59999990,
,,,-40.44000059E-3,2.4000001,,,,,-40.44000059E-3,-4.59999990,
,,,-40.40000215E-3,2.4000001,,,,,-40.40000215E-3,-4.59999990,
,,,-40.35999998E-3,3.20000005,,,,,-40.35999998E-3,-4.40000010,
,,,-40.32000154E-3,3.20000005,,,,,-40.32000154E-3,-4.40000010,
,,,-40.27999938E-3,3.20000005,,,,,-40.27999938E-3,-4.20000029,
,,,-40.24000093E-3,4.00000000,,,,,-40.24000093E-3,-4.00000000,
,,,-40.19999877E-3,4.00000000,,,,,-40.19999877E-3,-4.00000000,
,,,-40.16000032E-3,4.00000000,,,,,-40.16000032E-3,-4.20000029,
,,,-40.12000188E-3,4.00000000,,,,,-40.12000188E-3,-4.00000000,
,,,-40.07999972E-3,4.80000019,,,,,-40.07999972E-3,-4.00000000,
,,,-40.04000127E-3,5.59999990,,,,,-40.04000127E-3,-4.00000000,
,,,-39.99999911E-3,5.59999990,,,,,-39.99999911E-3,-3.79999995,
,,,-39.96000066E-3,6.40000010,,,,,-39.96000066E-3,-3.60000014,
,,,-39.91999850E-3,6.40000010,,,,,-39.91999850E-3,-3.60000014,
,,,-39.88000005E-3,6.40000010,,,,,-39.88000005E-3,-3.60000014,
,,,-39.84000161E-3,6.40000010,,,,,-39.84000161E-3,-3.40000010,
,,,-39.79999945E-3,7.20000029,,,,,-39.79999945E-3,-3.40000010,
,,,-39.76000100E-3,7.20000029,,,,,-39.76000100E-3,-3.40000010,
,,,-39.71999884E-3,7.20000029,,,,,-39.71999884E-3,-3.20000005,
,,,-39.68000039E-3,8.000000000,,,,,-39.68000039E-3,-3.20000005,
,,,-39.64000195E-3,8.000000000,,,,,-39.64000195E-3,-3.00000000,
,,,-39.59999979E-3,8.000000000,,,,,-39.59999979E-3,-3.00000000,
,,,-39.56000134E-3,8.000000000,,,,,-39.56000134E-3,-2.79999995,
,,,-39.51999918E-3,8.800000191,,,,,-39.51999918E-3,-2.79999995,
,,,-39.48000073E-3,8.800000191,,,,,-39.48000073E-3,-2.6000001,
,,,-39.43999857E-3,8.800000191,,,,,-39.43999857E-3,-2.6000001,
,,,-39.40000013E-3,8.800000191,,,,,-39.40000013E-3,-2.6000001,
,,,-39.36000168E-3,8.800000191,,,,,-39.36000168E-3,-2.4000001,
,,,-39.31999952E-3,9.600000381,,,,,-39.31999952E-3,-2.2000000,
,,,-39.28000107E-3,9.600000381,,,,,-39.28000107E-3,-2.2000000,
,,,-39.23999891E-3,9.600000381,,,,,-39.23999891E-3,-2.2000000,
,,,-39.20000046E-3,9.600000381,,,,,-39.20000046E-3,-2.0000000,
,,,-39.16000202E-3,10.4000006,,,,,-39.16000202E-3,-1.8000001,
,,,-39.11999986E-3,10.4000006,,,,,-39.11999986E-3,-1.8000001,
,,,-39.08000141E-3,10.4000006,,,,,-39.08000141E-3,-1.8000001,
,,,-39.03999925E-3,10.4000006,,,,,-39.03999925E-3,-1.4000000,
,,,-39.00000080E-3,10.4000006,,,,,-39.00000080E-3,-1.6000000,
,,,-38.95999864E-3,10.4000006,,,,,-38.95999864E-3,-1.2000000,
,,,-38.92000020E-3,11.1999998,,,,,-38.92000020E-3,-1.2000000,
,,,-38.88000175E-3,11.1999998,,,,,-38.88000175E-3,-1.000000,
,,,-38.83999959E-3,11.1999998,,,,,-38.83999959E-3,-1.000000,
,,,-38.80000114E-3,11.1999998,,,,,-38.80000114E-3,-800.000011921E-3,
,,,-38.75999898E-3,11.1999998,,,,,-38.75999898E-3,-800.000011921E-3,
,,,-38.72000054E-3,11.1999998,,,,,-38.72000054E-3,-600.000023842E-3,
,,,-38.68000209E-3,11.1999998,,,,,-38.68000209E-3,-400.00000596E-3,
,,,-38.63999993E-3,12.0000000,,,,,-38.63999993E-3,-400.00000596E-3,
,,,-38.60000148E-3,11.1999998,,,,,-38.60000148E-3,-200.00000298E-3,
,,,-38.55999932E-3,12.0000000,,,,,-38.55999932E-3,-200.00000298E-3,
,,,-38.52000087E-3,12.0000000,,,,,-38.52000087E-3,-200.00000298E-3,
,,,-38.47999871E-3,12.0000000,,,,,-38.47999871E-3,0.0,
,,,-38.44000027E-3,12.0000000,,,,,-38.44000027E-3,200.00000298E-3,
,,,-38.40000182E-3,12.8000002,,,,,-38.40000182E-3,400.00000596E-3,
,,,-38.35999966E-3,12.8000002,,,,,-38.35999966E-3,400.00000596E-3,
