Magnetism/harhava/data/high/Harhava_material2_1sheet_14glass.csv

Record Length,2500,Points,-49.99999702E-3,-4.00000000,,Record Length,2500,Points,-49.99999702E-3,0.0,
Sample Interval,39.99999899E-6,s,-49.95999858E-3,-4.80000019,,Sample Interval,39.99999899E-6,s,-49.95999858E-3,0.0,
Trigger Point,1.2500000E3,Samples,-49.91999641E-3,-4.80000019,,Trigger Point,1.2500000E3,Samples,-49.91999641E-3,-79.999998212E-3,
,,,-49.87999797E-3,-5.59999990,,,,,-49.87999797E-3,-79.999998212E-3,
,,,-49.83999580E-3,-6.40000010,,,,,-49.83999580E-3,-79.999998212E-3,
,,,-49.79999736E-3,-8.000000000,,,,,-49.79999736E-3,-79.999998212E-3,
Source,CH1,,-49.75999519E-3,-8.800000191,,Source,CH2,,-49.75999519E-3,-79.999998212E-3,
Vertical Units,Volts,,-49.71999675E-3,-9.600000381,,Vertical Units,Volts,,-49.71999675E-3,-159.99999642E-3,
Vertical Scale,20.0000003,,-49.67999831E-3,-9.600000381,,Vertical Scale,2.0000000,,-49.67999831E-3,-159.99999642E-3,
Vertical Offset,0,,-49.63999614E-3,-9.600000381,,Vertical Offset,0,,-49.63999614E-3,-159.99999642E-3,
Horizontal Units,s,,-49.59999770E-3,-11.1999998,,Horizontal Units,s,,-49.59999770E-3,-239.99999464E-3,
Horizontal Scale,9.999999747E-3,,-49.55999553E-3,-12.0000000,,Horizontal Scale,9.999999747E-3,,-49.55999553E-3,-239.99999464E-3,
Pt Fmt,Y,,-49.51999709E-3,-12.0000000,,Pt Fmt,Y,,-49.51999709E-3,-239.99999464E-3,
Yzero,-40.00000000E-3,,-49.47999865E-3,-12.8000002,,Yzero,-40.00000000E-3,,-49.47999865E-3,-239.99999464E-3,
Probe Atten,10.0000000,,-49.43999648E-3,-13.6000004,,Probe Atten,10.0000000,,-49.43999648E-3,-239.99999464E-3,
,,,-49.39999804E-3,-14.4000006,,,,,-49.39999804E-3,-319.99999285E-3,
Note,TBS 1052B-EDU - 16:50:51   04/12/2024,,-49.35999587E-3,-15.1999998,,Note,TBS 1052B-EDU - 16:50:51   04/12/2024,,-49.35999587E-3,-319.99999285E-3,
,,,-49.31999743E-3,-15.1999998,,,,,-49.31999743E-3,-319.99999285E-3,
,,,-49.27999526E-3,-16.0000000,,,,,-49.27999526E-3,-319.99999285E-3,
,,,-49.23999682E-3,-16.8000011,,,,,-49.23999682E-3,-399.99997616E-3,
,,,-49.19999838E-3,-17.6000004,,,,,-49.19999838E-3,-399.99997616E-3,
,,,-49.15999621E-3,-18.3999996,,,,,-49.15999621E-3,-399.99997616E-3,
,,,-49.11999777E-3,-18.3999996,,,,,-49.11999777E-3,-399.99997616E-3,
,,,-49.07999560E-3,-19.2000008,,,,,-49.07999560E-3,-399.99997616E-3,
,,,-49.03999716E-3,-20.0000000,,,,,-49.03999716E-3,-479.999989271E-3,
,,,-48.99999872E-3,-20.80000114,,,,,-48.99999872E-3,-479.999989271E-3,
,,,-48.95999655E-3,-21.60000038,,,,,-48.95999655E-3,-479.999989271E-3,
,,,-48.91999811E-3,-22.39999962,,,,,-48.91999811E-3,-560.000002384E-3,
,,,-48.87999594E-3,-23.20000076,,,,,-48.87999594E-3,-560.000002384E-3,
,,,-48.83999750E-3,-24.00000000,,,,,-48.83999750E-3,-560.000002384E-3,
,,,-48.79999533E-3,-24.00000000,,,,,-48.79999533E-3,-560.000002384E-3,
,,,-48.75999689E-3,-24.80000114,,,,,-48.75999689E-3,-560.000002384E-3,
,,,-48.71999845E-3,-25.60000038,,,,,-48.71999845E-3,-560.000002384E-3,
,,,-48.67999628E-3,-25.60000038,,,,,-48.67999628E-3,-639.999985695E-3,
,,,-48.63999784E-3,-26.39999962,,,,,-48.63999784E-3,-639.999985695E-3,
,,,-48.59999567E-3,-27.20000076,,,,,-48.59999567E-3,-719.999969006E-3,
,,,-48.55999723E-3,-28.00000000,,,,,-48.55999723E-3,-719.999969006E-3,
,,,-48.51999879E-3,-28.80000114,,,,,-48.51999879E-3,-719.999969006E-3,
,,,-48.47999662E-3,-30.39999962,,,,,-48.47999662E-3,-719.999969006E-3,
,,,-48.43999818E-3,-30.39999962,,,,,-48.43999818E-3,-719.999969006E-3,
,,,-48.39999601E-3,-30.39999962,,,,,-48.39999601E-3,-719.999969006E-3,
,,,-48.35999757E-3,-31.20000076,,,,,-48.35999757E-3,-799.999952316E-3,
,,,-48.31999540E-3,-32.00000000,,,,,-48.31999540E-3,-799.999952316E-3,
,,,-48.27999696E-3,-32.79999924,,,,,-48.27999696E-3,-799.999952316E-3,
,,,-48.23999852E-3,-32.79999924,,,,,-48.23999852E-3,-799.999952316E-3,
,,,-48.19999635E-3,-33.60000229,,,,,-48.19999635E-3,-799.999952316E-3,
,,,-48.15999791E-3,-34.40000153,,,,,-48.15999791E-3,-879.999995232E-3,
,,,-48.11999574E-3,-35.20000076,,,,,-48.11999574E-3,-879.999995232E-3,
,,,-48.07999730E-3,-35.20000076,,,,,-48.07999730E-3,-879.999995232E-3,
,,,-48.03999886E-3,-36.00000000,,,,,-48.03999886E-3,-959.999978542E-3,
,,,-47.99999669E-3,-36.79999924,,,,,-47.99999669E-3,-959.999978542E-3,
,,,-47.95999825E-3,-36.79999924,,,,,-47.95999825E-3,-959.999978542E-3,
,,,-47.91999608E-3,-37.60000229,,,,,-47.91999608E-3,-959.999978542E-3,
,,,-47.87999764E-3,-37.60000229,,,,,-47.87999764E-3,-959.999978542E-3,
,,,-47.83999547E-3,-38.40000153,,,,,-47.83999547E-3,-959.999978542E-3,
,,,-47.79999703E-3,-38.40000153,,,,,-47.79999703E-3,-959.999978542E-3,
,,,-47.75999859E-3,-40.00000000,,,,,-47.75999859E-3,-959.999978542E-3,
,,,-47.71999642E-3,-40.00000000,,,,,-47.71999642E-3,-959.999978542E-3,
,,,-47.67999798E-3,-40.00000000,,,,,-47.67999798E-3,-1.0400000,
,,,-47.63999581E-3,-40.79999924,,,,,-47.63999581E-3,-959.999978542E-3,
,,,-47.59999737E-3,-41.60000229,,,,,-47.59999737E-3,-1.0400000,
,,,-47.55999893E-3,-41.60000229,,,,,-47.55999893E-3,-1.0400000,
,,,-47.51999676E-3,-42.40000153,,,,,-47.51999676E-3,-1.0400000,
,,,-47.47999832E-3,-42.40000153,,,,,-47.47999832E-3,-1.1200000,
,,,-47.43999615E-3,-43.20000076,,,,,-47.43999615E-3,-1.1200000,
,,,-47.39999771E-3,-44.00000000,,,,,-47.39999771E-3,-1.1200000,
,,,-47.35999554E-3,-44.00000000,,,,,-47.35999554E-3,-1.1200000,
,,,-47.31999710E-3,-44.79999924,,,,,-47.31999710E-3,-1.1200000,
,,,-47.27999866E-3,-44.79999924,,,,,-47.27999866E-3,-1.1999999,
,,,-47.23999649E-3,-44.79999924,,,,,-47.23999649E-3,-1.1999999,
,,,-47.19999805E-3,-45.60000229,,,,,-47.19999805E-3,-1.1999999,
,,,-47.15999588E-3,-46.40000153,,,,,-47.15999588E-3,-1.1999999,
,,,-47.11999744E-3,-46.40000153,,,,,-47.11999744E-3,-1.1999999,
,,,-47.07999527E-3,-47.20000076,,,,,-47.07999527E-3,-1.1999999,
,,,-47.03999683E-3,-47.20000076,,,,,-47.03999683E-3,-1.1999999,
,,,-46.99999839E-3,-47.20000076,,,,,-46.99999839E-3,-1.1999999,
,,,-46.95999622E-3,-48.00000000,,,,,-46.95999622E-3,-1.1999999,
,,,-46.91999778E-3,-48.00000000,,,,,-46.91999778E-3,-1.2800000,
,,,-46.87999561E-3,-48.79999924,,,,,-46.87999561E-3,-1.2800000,
,,,-46.83999717E-3,-48.79999924,,,,,-46.83999717E-3,-1.2800000,
,,,-46.79999873E-3,-49.60000229,,,,,-46.79999873E-3,-1.2800000,
,,,-46.75999656E-3,-50.40000153,,,,,-46.75999656E-3,-1.2800000,
,,,-46.71999812E-3,-50.40000153,,,,,-46.71999812E-3,-1.2800000,
,,,-46.67999595E-3,-51.20000076,,,,,-46.67999595E-3,-1.3600000,
,,,-46.63999751E-3,-51.20000076,,,,,-46.63999751E-3,-1.3600000,
,,,-46.59999534E-3,-51.20000076,,,,,-46.59999534E-3,-1.3600000,
,,,-46.55999690E-3,-51.20000076,,,,,-46.55999690E-3,-1.3600000,
,,,-46.51999846E-3,-51.20000076,,,,,-46.51999846E-3,-1.3600000,
,,,-46.47999629E-3,-52.00000000,,,,,-46.47999629E-3,-1.3600000,
,,,-46.43999785E-3,-52.79999924,,,,,-46.43999785E-3,-1.3600000,
,,,-46.39999568E-3,-52.00000000,,,,,-46.39999568E-3,-1.3600000,
,,,-46.35999724E-3,-52.79999924,,,,,-46.35999724E-3,-1.3600000,
,,,-46.31999880E-3,-53.60000229,,,,,-46.31999880E-3,-1.3600000,
,,,-46.27999663E-3,-53.60000229,,,,,-46.27999663E-3,-1.3600000,
,,,-46.23999819E-3,-53.60000229,,,,,-46.23999819E-3,-1.4399999,
,,,-46.19999602E-3,-54.40000153,,,,,-46.19999602E-3,-1.3600000,
,,,-46.15999758E-3,-54.40000153,,,,,-46.15999758E-3,-1.4399999,
,,,-46.11999542E-3,-54.40000153,,,,,-46.11999542E-3,-1.4399999,
,,,-46.07999697E-3,-55.200000763,,,,,-46.07999697E-3,-1.4399999,
,,,-46.03999853E-3,-55.200000763,,,,,-46.03999853E-3,-1.4399999,
,,,-45.99999636E-3,-55.200000763,,,,,-45.99999636E-3,-1.4399999,
,,,-45.95999792E-3,-56.000000000,,,,,-45.95999792E-3,-1.4399999,
,,,-45.91999575E-3,-56.000000000,,,,,-45.91999575E-3,-1.5200000,
,,,-45.87999731E-3,-56.000000000,,,,,-45.87999731E-3,-1.5200000,
,,,-45.83999887E-3,-56.000000000,,,,,-45.83999887E-3,-1.5200000,
,,,-45.79999670E-3,-56.799999237,,,,,-45.79999670E-3,-1.4399999,
,,,-45.75999826E-3,-56.799999237,,,,,-45.75999826E-3,-1.5200000,
,,,-45.71999609E-3,-56.799999237,,,,,-45.71999609E-3,-1.5200000,
,,,-45.67999765E-3,-56.799999237,,,,,-45.67999765E-3,-1.5200000,
,,,-45.63999549E-3,-56.799999237,,,,,-45.63999549E-3,-1.5200000,
,,,-45.59999704E-3,-56.799999237,,,,,-45.59999704E-3,-1.5200000,
,,,-45.55999860E-3,-57.600002289,,,,,-45.55999860E-3,-1.5200000,
,,,-45.51999643E-3,-57.600002289,,,,,-45.51999643E-3,-1.5200000,
,,,-45.47999799E-3,-57.600002289,,,,,-45.47999799E-3,-1.5200000,
,,,-45.43999583E-3,-56.799999237,,,,,-45.43999583E-3,-1.5200000,
,,,-45.39999738E-3,-57.600002289,,,,,-45.39999738E-3,-1.5200000,
,,,-45.35999894E-3,-57.600002289,,,,,-45.35999894E-3,-1.5200000,
,,,-45.31999677E-3,-57.600002289,,,,,-45.31999677E-3,-1.5200000,
,,,-45.27999833E-3,-57.600002289,,,,,-45.27999833E-3,-1.5200000,
,,,-45.23999617E-3,-57.600002289,,,,,-45.23999617E-3,-1.5200000,
,,,-45.19999772E-3,-57.600002289,,,,,-45.19999772E-3,-1.5200000,
,,,-45.15999556E-3,-57.600002289,,,,,-45.15999556E-3,-1.5200000,
,,,-45.11999711E-3,-57.600002289,,,,,-45.11999711E-3,-1.5999999,
,,,-45.07999867E-3,-57.600002289,,,,,-45.07999867E-3,-1.5200000,
,,,-45.03999650E-3,-57.600002289,,,,,-45.03999650E-3,-1.5200000,
,,,-44.99999806E-3,-57.600002289,,,,,-44.99999806E-3,-1.5200000,
,,,-44.95999590E-3,-57.600002289,,,,,-44.95999590E-3,-1.5999999,
,,,-44.91999745E-3,-57.600002289,,,,,-44.91999745E-3,-1.5200000,
,,,-44.87999529E-3,-57.600002289,,,,,-44.87999529E-3,-1.5200000,
,,,-44.83999684E-3,-56.799999237,,,,,-44.83999684E-3,-1.5200000,
,,,-44.79999840E-3,-57.600002289,,,,,-44.79999840E-3,-1.5200000,
,,,-44.75999624E-3,-56.799999237,,,,,-44.75999624E-3,-1.5200000,
,,,-44.71999779E-3,-56.799999237,,,,,-44.71999779E-3,-1.5200000,
,,,-44.67999563E-3,-56.799999237,,,,,-44.67999563E-3,-1.5200000,
,,,-44.63999718E-3,-56.799999237,,,,,-44.63999718E-3,-1.5200000,
,,,-44.59999874E-3,-56.000000000,,,,,-44.59999874E-3,-1.5200000,
,,,-44.55999658E-3,-56.000000000,,,,,-44.55999658E-3,-1.5200000,
,,,-44.51999813E-3,-56.000000000,,,,,-44.51999813E-3,-1.5200000,
,,,-44.47999597E-3,-55.200000763,,,,,-44.47999597E-3,-1.5200000,
,,,-44.43999752E-3,-55.200000763,,,,,-44.43999752E-3,-1.4399999,
,,,-44.39999536E-3,-56.000000000,,,,,-44.39999536E-3,-1.4399999,
,,,-44.35999691E-3,-55.200000763,,,,,-44.35999691E-3,-1.5200000,
,,,-44.31999847E-3,-55.200000763,,,,,-44.31999847E-3,-1.4399999,
,,,-44.27999631E-3,-54.40000153,,,,,-44.27999631E-3,-1.5200000,
,,,-44.23999786E-3,-54.40000153,,,,,-44.23999786E-3,-1.5200000,
,,,-44.19999570E-3,-54.40000153,,,,,-44.19999570E-3,-1.4399999,
,,,-44.15999725E-3,-54.40000153,,,,,-44.15999725E-3,-1.4399999,
,,,-44.11999881E-3,-53.60000229,,,,,-44.11999881E-3,-1.5200000,
,,,-44.07999665E-3,-53.60000229,,,,,-44.07999665E-3,-1.3600000,
,,,-44.03999820E-3,-52.79999924,,,,,-44.03999820E-3,-1.4399999,
,,,-43.99999604E-3,-52.79999924,,,,,-43.99999604E-3,-1.3600000,
,,,-43.95999759E-3,-52.00000000,,,,,-43.95999759E-3,-1.4399999,
,,,-43.91999543E-3,-52.79999924,,,,,-43.91999543E-3,-1.3600000,
,,,-43.87999699E-3,-52.00000000,,,,,-43.87999699E-3,-1.3600000,
,,,-43.83999854E-3,-51.20000076,,,,,-43.83999854E-3,-1.3600000,
,,,-43.79999638E-3,-51.20000076,,,,,-43.79999638E-3,-1.3600000,
,,,-43.75999793E-3,-51.20000076,,,,,-43.75999793E-3,-1.2800000,
,,,-43.71999577E-3,-50.40000153,,,,,-43.71999577E-3,-1.4399999,
,,,-43.67999732E-3,-50.40000153,,,,,-43.67999732E-3,-1.3600000,
,,,-43.63999888E-3,-49.60000229,,,,,-43.63999888E-3,-1.3600000,
,,,-43.59999672E-3,-49.60000229,,,,,-43.59999672E-3,-1.3600000,
,,,-43.55999827E-3,-49.60000229,,,,,-43.55999827E-3,-1.3600000,
,,,-43.51999611E-3,-48.79999924,,,,,-43.51999611E-3,-1.2800000,
,,,-43.47999766E-3,-48.00000000,,,,,-43.47999766E-3,-1.2800000,
,,,-43.43999550E-3,-48.00000000,,,,,-43.43999550E-3,-1.2800000,
,,,-43.39999706E-3,-48.00000000,,,,,-43.39999706E-3,-1.2800000,
,,,-43.35999861E-3,-47.20000076,,,,,-43.35999861E-3,-1.2800000,
,,,-43.31999645E-3,-46.40000153,,,,,-43.31999645E-3,-1.2800000,
,,,-43.27999800E-3,-46.40000153,,,,,-43.27999800E-3,-1.2800000,
,,,-43.23999584E-3,-45.60000229,,,,,-43.23999584E-3,-1.2800000,
,,,-43.19999740E-3,-45.60000229,,,,,-43.19999740E-3,-1.2800000,
,,,-43.15999895E-3,-44.79999924,,,,,-43.15999895E-3,-1.1999999,
,,,-43.11999679E-3,-44.00000000,,,,,-43.11999679E-3,-1.1999999,
,,,-43.07999834E-3,-44.00000000,,,,,-43.07999834E-3,-1.2800000,
,,,-43.03999618E-3,-43.20000076,,,,,-43.03999618E-3,-1.1999999,
,,,-42.99999774E-3,-43.20000076,,,,,-42.99999774E-3,-1.1999999,
,,,-42.95999557E-3,-42.40000153,,,,,-42.95999557E-3,-1.1999999,
,,,-42.91999713E-3,-42.40000153,,,,,-42.91999713E-3,-1.1999999,
,,,-42.87999868E-3,-41.60000229,,,,,-42.87999868E-3,-1.1200000,
,,,-42.83999652E-3,-41.60000229,,,,,-42.83999652E-3,-1.1200000,
,,,-42.79999807E-3,-40.79999924,,,,,-42.79999807E-3,-1.1200000,
,,,-42.75999591E-3,-40.00000000,,,,,-42.75999591E-3,-1.0400000,
,,,-42.71999747E-3,-40.00000000,,,,,-42.71999747E-3,-1.1200000,
,,,-42.67999902E-3,-39.20000076,,,,,-42.67999902E-3,-1.1200000,
,,,-42.63999686E-3,-38.40000153,,,,,-42.63999686E-3,-1.1200000,
,,,-42.59999841E-3,-38.40000153,,,,,-42.59999841E-3,-1.1200000,
,,,-42.55999625E-3,-37.60000229,,,,,-42.55999625E-3,-1.0400000,
,,,-42.51999781E-3,-36.79999924,,,,,-42.51999781E-3,-1.0400000,
,,,-42.47999564E-3,-36.79999924,,,,,-42.47999564E-3,-1.0400000,
,,,-42.43999720E-3,-36.00000000,,,,,-42.43999720E-3,-1.0400000,
,,,-42.39999875E-3,-36.00000000,,,,,-42.39999875E-3,-1.0400000,
,,,-42.35999659E-3,-35.20000076,,,,,-42.35999659E-3,-1.0400000,
,,,-42.31999815E-3,-34.40000153,,,,,-42.31999815E-3,-959.999978542E-3,
,,,-42.27999598E-3,-34.40000153,,,,,-42.27999598E-3,-1.0400000,
,,,-42.23999754E-3,-33.60000229,,,,,-42.23999754E-3,-959.999978542E-3,
,,,-42.19999537E-3,-32.79999924,,,,,-42.19999537E-3,-959.999978542E-3,
,,,-42.15999693E-3,-32.00000000,,,,,-42.15999693E-3,-959.999978542E-3,
,,,-42.11999848E-3,-32.00000000,,,,,-42.11999848E-3,-959.999978542E-3,
,,,-42.07999632E-3,-31.20000076,,,,,-42.07999632E-3,-879.999995232E-3,
,,,-42.03999788E-3,-29.60000038,,,,,-42.03999788E-3,-879.999995232E-3,
,,,-41.99999571E-3,-29.60000038,,,,,-41.99999571E-3,-879.999995232E-3,
,,,-41.95999727E-3,-29.60000038,,,,,-41.95999727E-3,-879.999995232E-3,
,,,-41.91999882E-3,-28.00000000,,,,,-41.91999882E-3,-879.999995232E-3,
,,,-41.87999666E-3,-27.20000076,,,,,-41.87999666E-3,-799.999952316E-3,
,,,-41.83999822E-3,-27.20000076,,,,,-41.83999822E-3,-879.999995232E-3,
,,,-41.79999605E-3,-27.20000076,,,,,-41.79999605E-3,-799.999952316E-3,
,,,-41.75999761E-3,-26.39999962,,,,,-41.75999761E-3,-799.999952316E-3,
,,,-41.71999544E-3,-25.60000038,,,,,-41.71999544E-3,-799.999952316E-3,
,,,-41.67999700E-3,-24.80000114,,,,,-41.67999700E-3,-719.999969006E-3,
,,,-41.63999856E-3,-24.00000000,,,,,-41.63999856E-3,-719.999969006E-3,
,,,-41.59999639E-3,-23.20000076,,,,,-41.59999639E-3,-719.999969006E-3,
,,,-41.55999795E-3,-23.20000076,,,,,-41.55999795E-3,-719.999969006E-3,
,,,-41.51999578E-3,-22.39999962,,,,,-41.51999578E-3,-639.999985695E-3,
,,,-41.47999734E-3,-21.60000038,,,,,-41.47999734E-3,-639.999985695E-3,
,,,-41.43999889E-3,-20.80000114,,,,,-41.43999889E-3,-639.999985695E-3,
,,,-41.39999673E-3,-20.0000000,,,,,-41.39999673E-3,-639.999985695E-3,
,,,-41.35999829E-3,-19.2000008,,,,,-41.35999829E-3,-560.000002384E-3,
,,,-41.31999612E-3,-18.3999996,,,,,-41.31999612E-3,-560.000002384E-3,
,,,-41.27999768E-3,-18.3999996,,,,,-41.27999768E-3,-560.000002384E-3,
,,,-41.23999551E-3,-16.8000011,,,,,-41.23999551E-3,-560.000002384E-3,
,,,-41.19999707E-3,-16.8000011,,,,,-41.19999707E-3,-560.000002384E-3,
,,,-41.15999863E-3,-16.0000000,,,,,-41.15999863E-3,-560.000002384E-3,
,,,-41.11999646E-3,-15.1999998,,,,,-41.11999646E-3,-479.999989271E-3,
,,,-41.07999802E-3,-14.4000006,,,,,-41.07999802E-3,-479.999989271E-3,
,,,-41.03999585E-3,-13.6000004,,,,,-41.03999585E-3,-479.999989271E-3,
,,,-40.99999741E-3,-12.8000002,,,,,-40.99999741E-3,-479.999989271E-3,
,,,-40.95999897E-3,-12.0000000,,,,,-40.95999897E-3,-399.99997616E-3,
,,,-40.91999680E-3,-12.0000000,,,,,-40.91999680E-3,-399.99997616E-3,
,,,-40.87999836E-3,-11.1999998,,,,,-40.87999836E-3,-399.99997616E-3,
,,,-40.83999619E-3,-10.4000006,,,,,-40.83999619E-3,-399.99997616E-3,
,,,-40.79999775E-3,-9.600000381,,,,,-40.79999775E-3,-399.99997616E-3,
,,,-40.75999558E-3,-8.800000191,,,,,-40.75999558E-3,-319.99999285E-3,
,,,-40.71999714E-3,-8.000000000,,,,,-40.71999714E-3,-319.99999285E-3,
,,,-40.67999870E-3,-7.20000029,,,,,-40.67999870E-3,-319.99999285E-3,
,,,-40.63999653E-3,-6.40000010,,,,,-40.63999653E-3,-319.99999285E-3,
,,,-40.59999809E-3,-6.40000010,,,,,-40.59999809E-3,-239.99999464E-3,
,,,-40.55999592E-3,-5.59999990,,,,,-40.55999592E-3,-239.99999464E-3,
,,,-40.51999748E-3,-4.80000019,,,,,-40.51999748E-3,-239.99999464E-3,
,,,-40.47999904E-3,-4.00000000,,,,,-40.47999904E-3,-239.99999464E-3,
,,,-40.43999687E-3,-3.20000005,,,,,-40.43999687E-3,-159.99999642E-3,
,,,-40.39999843E-3,-1.6000000,,,,,-40.39999843E-3,-159.99999642E-3,
,,,-40.35999626E-3,-1.6000000,,,,,-40.35999626E-3,-159.99999642E-3,
,,,-40.31999782E-3,-800.000011921E-3,,,,,-40.31999782E-3,-79.999998212E-3,
,,,-40.27999565E-3,0.0,,,,,-40.27999565E-3,-79.999998212E-3,
,,,-40.23999721E-3,800.000011921E-3,,,,,-40.23999721E-3,-79.999998212E-3,
,,,-40.19999877E-3,1.6000000,,,,,-40.19999877E-3,-79.999998212E-3,
,,,-40.15999660E-3,2.4000001,,,,,-40.15999660E-3,-79.999998212E-3,
,,,-40.11999816E-3,3.20000005,,,,,-40.11999816E-3,0.0,
,,,-40.07999599E-3,3.20000005,,,,,-40.07999599E-3,0.0,
,,,-40.03999755E-3,4.00000000,,,,,-40.03999755E-3,79.999998212E-3,
,,,-39.99999911E-3,4.80000019,,,,,-39.99999911E-3,79.999998212E-3,
,,,-39.95999694E-3,5.59999990,,,,,-39.95999694E-3,79.999998212E-3,
,,,-39.91999850E-3,6.40000010,,,,,-39.91999850E-3,159.99999642E-3,
,,,-39.87999633E-3,7.20000029,,,,,-39.87999633E-3,159.99999642E-3,
,,,-39.83999789E-3,8.000000000,,,,,-39.83999789E-3,159.99999642E-3,
,,,-39.79999572E-3,8.800000191,,,,,-39.79999572E-3,159.99999642E-3,
,,,-39.75999728E-3,9.600000381,,,,,-39.75999728E-3,159.99999642E-3,
,,,-39.71999884E-3,9.600000381,,,,,-39.71999884E-3,239.99999464E-3,
,,,-39.67999667E-3,10.4000006,,,,,-39.67999667E-3,239.99999464E-3,
,,,-39.63999823E-3,11.1999998,,,,,-39.63999823E-3,239.99999464E-3,
,,,-39.59999606E-3,12.0000000,,,,,-39.59999606E-3,239.99999464E-3,
,,,-39.55999762E-3,12.0000000,,,,,-39.55999762E-3,239.99999464E-3,
,,,-39.51999545E-3,12.8000002,,,,,-39.51999545E-3,319.99999285E-3,
,,,-39.47999701E-3,13.6000004,,,,,-39.47999701E-3,319.99999285E-3,
,,,-39.43999857E-3,13.6000004,,,,,-39.43999857E-3,399.99997616E-3,
,,,-39.39999640E-3,15.1999998,,,,,-39.39999640E-3,399.99997616E-3,
,,,-39.35999796E-3,16.0000000,,,,,-39.35999796E-3,399.99997616E-3,
,,,-39.31999579E-3,16.0000000,,,,,-39.31999579E-3,399.99997616E-3,
,,,-39.27999735E-3,16.8000011,,,,,-39.27999735E-3,399.99997616E-3,
,,,-39.23999891E-3,17.6000004,,,,,-39.23999891E-3,479.999989271E-3,
,,,-39.19999674E-3,18.3999996,,,,,-39.19999674E-3,479.999989271E-3,
,,,-39.15999830E-3,18.3999996,,,,,-39.15999830E-3,479.999989271E-3,
,,,-39.11999613E-3,19.2000008,,,,,-39.11999613E-3,479.999989271E-3,
,,,-39.07999769E-3,20.0000000,,,,,-39.07999769E-3,479.999989271E-3,
,,,-39.03999552E-3,20.80000114,,,,,-39.03999552E-3,479.999989271E-3,
,,,-38.99999708E-3,21.60000038,,,,,-38.99999708E-3,560.000002384E-3,
,,,-38.95999864E-3,22.39999962,,,,,-38.95999864E-3,560.000002384E-3,
,,,-38.91999647E-3,22.39999962,,,,,-38.91999647E-3,560.000002384E-3,
,,,-38.87999803E-3,24.00000000,,,,,-38.87999803E-3,560.000002384E-3,
,,,-38.83999586E-3,24.00000000,,,,,-38.83999586E-3,639.999985695E-3,
,,,-38.79999742E-3,24.80000114,,,,,-38.79999742E-3,639.999985695E-3,
,,,-38.75999898E-3,25.60000038,,,,,-38.75999898E-3,639.999985695E-3,
,,,-38.71999681E-3,25.60000038,,,,,-38.71999681E-3,639.999985695E-3,
,,,-38.67999837E-3,26.39999962,,,,,-38.67999837E-3,719.999969006E-3,
,,,-38.63999620E-3,27.20000076,,,,,-38.63999620E-3,719.999969006E-3,
,,,-38.59999776E-3,28.00000000,,,,,-38.59999776E-3,719.999969006E-3,
,,,-38.55999559E-3,28.80000114,,,,,-38.55999559E-3,719.999969006E-3,
,,,-38.51999715E-3,29.60000038,,,,,-38.51999715E-3,799.999952316E-3,
,,,-38.47999871E-3,29.60000038,,,,,-38.47999871E-3,799.999952316E-3,
,,,-38.43999654E-3,30.39999962,,,,,-38.43999654E-3,799.999952316E-3,
