Magnetism/part 3 - find permeabililty/data/2.3_material1_4kohm.csv

Record Length,2500,Points,-24.99999851E-3,-16.8000011,,Record Length,2500,Points,-24.99999851E-3,-3.59999990,
Sample Interval,19.9999995E-6,s,-24.97999929E-3,-16.8000011,,Sample Interval,19.9999995E-6,s,-24.97999929E-3,-3.59999990,
Trigger Point,1.2500000E3,Samples,-24.95999821E-3,-16.8000011,,Trigger Point,1.2500000E3,Samples,-24.95999821E-3,-3.59999990,
,,,-24.93999898E-3,-16.8000011,,,,,-24.93999898E-3,-3.59999990,
,,,-24.91999790E-3,-16.8000011,,,,,-24.91999790E-3,-3.59999990,
,,,-24.89999868E-3,-16.8000011,,,,,-24.89999868E-3,-3.59999990,
Source,CH1,,-24.87999760E-3,-16.8000011,,Source,CH2,,-24.87999760E-3,-3.59999990,
Vertical Units,Volts,,-24.85999838E-3,-16.8000011,,Vertical Units,Volts,,-24.85999838E-3,-3.59999990,
Vertical Scale,20.0000003,,-24.83999915E-3,-16.8000011,,Vertical Scale,2.0000000,,-24.83999915E-3,-3.59999990,
Vertical Offset,0,,-24.81999807E-3,-16.8000011,,Vertical Offset,0,,-24.81999807E-3,-3.59999990,
Horizontal Units,s,,-24.79999885E-3,-16.8000011,,Horizontal Units,s,,-24.79999885E-3,-3.59999990,
Horizontal Scale,4.99999987E-3,,-24.77999777E-3,-16.0000000,,Horizontal Scale,4.99999987E-3,,-24.77999777E-3,-3.59999990,
Pt Fmt,Y,,-24.75999855E-3,-16.0000000,,Pt Fmt,Y,,-24.75999855E-3,-3.59999990,
Yzero,0.0,,-24.73999932E-3,-16.0000000,,Yzero,0.0,,-24.73999932E-3,-3.59999990,
Probe Atten,10.0000000,,-24.71999824E-3,-16.0000000,,Probe Atten,10.0000000,,-24.71999824E-3,-3.59999990,
,,,-24.69999902E-3,-16.0000000,,,,,-24.69999902E-3,-3.59999990,
Note,TBS 1052B-EDU - 16:38:23   13/11/2024,,-24.67999794E-3,-16.0000000,,Note,TBS 1052B-EDU - 16:38:23   13/11/2024,,-24.67999794E-3,-3.59999990,
,,,-24.65999871E-3,-16.0000000,,,,,-24.65999871E-3,-3.59999990,
,,,-24.63999763E-3,-16.0000000,,,,,-24.63999763E-3,-3.59999990,
,,,-24.61999841E-3,-16.0000000,,,,,-24.61999841E-3,-3.59999990,
,,,-24.59999919E-3,-16.0000000,,,,,-24.59999919E-3,-3.59999990,
,,,-24.57999811E-3,-16.0000000,,,,,-24.57999811E-3,-3.59999990,
,,,-24.55999888E-3,-16.0000000,,,,,-24.55999888E-3,-3.59999990,
,,,-24.53999780E-3,-16.0000000,,,,,-24.53999780E-3,-3.59999990,
,,,-24.51999858E-3,-16.0000000,,,,,-24.51999858E-3,-3.59999990,
,,,-24.49999936E-3,-16.0000000,,,,,-24.49999936E-3,-3.59999990,
,,,-24.47999828E-3,-16.0000000,,,,,-24.47999828E-3,-3.59999990,
,,,-24.45999905E-3,-16.0000000,,,,,-24.45999905E-3,-3.59999990,
,,,-24.43999797E-3,-16.0000000,,,,,-24.43999797E-3,-3.59999990,
,,,-24.41999875E-3,-16.0000000,,,,,-24.41999875E-3,-3.59999990,
,,,-24.39999767E-3,-16.0000000,,,,,-24.39999767E-3,-3.51999998,
,,,-24.37999845E-3,-16.0000000,,,,,-24.37999845E-3,-3.51999998,
,,,-24.35999922E-3,-15.1999998,,,,,-24.35999922E-3,-3.59999990,
,,,-24.33999814E-3,-16.0000000,,,,,-24.33999814E-3,-3.59999990,
,,,-24.31999892E-3,-15.1999998,,,,,-24.31999892E-3,-3.51999998,
,,,-24.29999784E-3,-15.1999998,,,,,-24.29999784E-3,-3.51999998,
,,,-24.27999862E-3,-15.1999998,,,,,-24.27999862E-3,-3.51999998,
,,,-24.25999939E-3,-15.1999998,,,,,-24.25999939E-3,-3.51999998,
,,,-24.23999831E-3,-15.1999998,,,,,-24.23999831E-3,-3.51999998,
,,,-24.21999909E-3,-15.1999998,,,,,-24.21999909E-3,-3.51999998,
,,,-24.19999801E-3,-15.1999998,,,,,-24.19999801E-3,-3.51999998,
,,,-24.17999879E-3,-15.1999998,,,,,-24.17999879E-3,-3.51999998,
,,,-24.15999770E-3,-15.1999998,,,,,-24.15999770E-3,-3.51999998,
,,,-24.13999848E-3,-15.1999998,,,,,-24.13999848E-3,-3.51999998,
,,,-24.11999926E-3,-15.1999998,,,,,-24.11999926E-3,-3.51999998,
,,,-24.09999818E-3,-15.1999998,,,,,-24.09999818E-3,-3.51999998,
,,,-24.07999896E-3,-15.1999998,,,,,-24.07999896E-3,-3.51999998,
,,,-24.05999787E-3,-14.4000006,,,,,-24.05999787E-3,-3.51999998,
,,,-24.03999865E-3,-14.4000006,,,,,-24.03999865E-3,-3.51999998,
,,,-24.01999943E-3,-14.4000006,,,,,-24.01999943E-3,-3.51999998,
,,,-23.99999835E-3,-14.4000006,,,,,-23.99999835E-3,-3.51999998,
,,,-23.97999913E-3,-14.4000006,,,,,-23.97999913E-3,-3.51999998,
,,,-23.95999804E-3,-14.4000006,,,,,-23.95999804E-3,-3.51999998,
,,,-23.93999882E-3,-14.4000006,,,,,-23.93999882E-3,-3.51999998,
,,,-23.91999774E-3,-14.4000006,,,,,-23.91999774E-3,-3.51999998,
,,,-23.89999852E-3,-14.4000006,,,,,-23.89999852E-3,-3.51999998,
,,,-23.87999929E-3,-14.4000006,,,,,-23.87999929E-3,-3.51999998,
,,,-23.85999821E-3,-14.4000006,,,,,-23.85999821E-3,-3.51999998,
,,,-23.83999899E-3,-14.4000006,,,,,-23.83999899E-3,-3.51999998,
,,,-23.81999791E-3,-14.4000006,,,,,-23.81999791E-3,-3.43999982,
,,,-23.79999869E-3,-13.6000004,,,,,-23.79999869E-3,-3.43999982,
,,,-23.77999946E-3,-13.6000004,,,,,-23.77999946E-3,-3.43999982,
,,,-23.75999838E-3,-13.6000004,,,,,-23.75999838E-3,-3.43999982,
,,,-23.73999916E-3,-13.6000004,,,,,-23.73999916E-3,-3.43999982,
,,,-23.71999808E-3,-13.6000004,,,,,-23.71999808E-3,-3.43999982,
,,,-23.69999886E-3,-13.6000004,,,,,-23.69999886E-3,-3.43999982,
,,,-23.67999777E-3,-13.6000004,,,,,-23.67999777E-3,-3.43999982,
,,,-23.65999855E-3,-13.6000004,,,,,-23.65999855E-3,-3.43999982,
,,,-23.63999933E-3,-13.6000004,,,,,-23.63999933E-3,-3.43999982,
,,,-23.61999825E-3,-13.6000004,,,,,-23.61999825E-3,-3.43999982,
,,,-23.59999903E-3,-13.6000004,,,,,-23.59999903E-3,-3.43999982,
,,,-23.57999794E-3,-13.6000004,,,,,-23.57999794E-3,-3.43999982,
,,,-23.55999872E-3,-12.8000002,,,,,-23.55999872E-3,-3.43999982,
,,,-23.53999764E-3,-13.6000004,,,,,-23.53999764E-3,-3.43999982,
,,,-23.51999842E-3,-12.8000002,,,,,-23.51999842E-3,-3.43999982,
,,,-23.49999920E-3,-12.8000002,,,,,-23.49999920E-3,-3.43999982,
,,,-23.47999811E-3,-12.8000002,,,,,-23.47999811E-3,-3.43999982,
,,,-23.45999889E-3,-12.8000002,,,,,-23.45999889E-3,-3.43999982,
,,,-23.43999781E-3,-12.8000002,,,,,-23.43999781E-3,-3.43999982,
,,,-23.41999859E-3,-12.8000002,,,,,-23.41999859E-3,-3.35999990,
,,,-23.39999937E-3,-12.8000002,,,,,-23.39999937E-3,-3.35999990,
,,,-23.37999828E-3,-12.8000002,,,,,-23.37999828E-3,-3.35999990,
,,,-23.35999906E-3,-12.8000002,,,,,-23.35999906E-3,-3.35999990,
,,,-23.33999798E-3,-12.8000002,,,,,-23.33999798E-3,-3.35999990,
,,,-23.31999876E-3,-12.8000002,,,,,-23.31999876E-3,-3.35999990,
,,,-23.29999767E-3,-12.8000002,,,,,-23.29999767E-3,-3.35999990,
,,,-23.27999845E-3,-12.0000000,,,,,-23.27999845E-3,-3.35999990,
,,,-23.25999923E-3,-12.0000000,,,,,-23.25999923E-3,-3.35999990,
,,,-23.23999815E-3,-12.0000000,,,,,-23.23999815E-3,-3.35999990,
,,,-23.21999893E-3,-12.0000000,,,,,-23.21999893E-3,-3.35999990,
,,,-23.19999784E-3,-12.0000000,,,,,-23.19999784E-3,-3.35999990,
,,,-23.17999862E-3,-12.0000000,,,,,-23.17999862E-3,-3.27999997,
,,,-23.15999940E-3,-12.0000000,,,,,-23.15999940E-3,-3.27999997,
,,,-23.13999832E-3,-12.0000000,,,,,-23.13999832E-3,-3.27999997,
,,,-23.11999910E-3,-12.0000000,,,,,-23.11999910E-3,-3.27999997,
,,,-23.09999801E-3,-12.0000000,,,,,-23.09999801E-3,-3.27999997,
,,,-23.07999879E-3,-12.0000000,,,,,-23.07999879E-3,-3.27999997,
,,,-23.05999771E-3,-11.1999998,,,,,-23.05999771E-3,-3.27999997,
,,,-23.03999849E-3,-11.1999998,,,,,-23.03999849E-3,-3.27999997,
,,,-23.01999927E-3,-11.1999998,,,,,-23.01999927E-3,-3.27999997,
,,,-22.99999818E-3,-11.1999998,,,,,-22.99999818E-3,-3.27999997,
,,,-22.97999896E-3,-11.1999998,,,,,-22.97999896E-3,-3.27999997,
,,,-22.95999788E-3,-11.1999998,,,,,-22.95999788E-3,-3.27999997,
,,,-22.93999866E-3,-11.1999998,,,,,-22.93999866E-3,-3.19999981,
,,,-22.91999944E-3,-11.1999998,,,,,-22.91999944E-3,-3.19999981,
,,,-22.89999835E-3,-11.1999998,,,,,-22.89999835E-3,-3.19999981,
,,,-22.87999913E-3,-10.4000006,,,,,-22.87999913E-3,-3.19999981,
,,,-22.85999805E-3,-10.4000006,,,,,-22.85999805E-3,-3.19999981,
,,,-22.83999883E-3,-10.4000006,,,,,-22.83999883E-3,-3.19999981,
,,,-22.81999774E-3,-10.4000006,,,,,-22.81999774E-3,-3.19999981,
,,,-22.79999852E-3,-10.4000006,,,,,-22.79999852E-3,-3.19999981,
,,,-22.77999930E-3,-10.4000006,,,,,-22.77999930E-3,-3.19999981,
,,,-22.75999822E-3,-10.4000006,,,,,-22.75999822E-3,-3.19999981,
,,,-22.73999900E-3,-10.4000006,,,,,-22.73999900E-3,-3.19999981,
,,,-22.71999791E-3,-10.4000006,,,,,-22.71999791E-3,-3.11999989,
,,,-22.69999869E-3,-9.600000381,,,,,-22.69999869E-3,-3.11999989,
,,,-22.67999947E-3,-9.600000381,,,,,-22.67999947E-3,-3.11999989,
,,,-22.65999839E-3,-9.600000381,,,,,-22.65999839E-3,-3.11999989,
,,,-22.63999917E-3,-9.600000381,,,,,-22.63999917E-3,-3.11999989,
,,,-22.61999808E-3,-9.600000381,,,,,-22.61999808E-3,-3.11999989,
,,,-22.59999886E-3,-9.600000381,,,,,-22.59999886E-3,-3.11999989,
,,,-22.57999778E-3,-9.600000381,,,,,-22.57999778E-3,-3.11999989,
,,,-22.55999856E-3,-9.600000381,,,,,-22.55999856E-3,-3.11999989,
,,,-22.53999934E-3,-9.600000381,,,,,-22.53999934E-3,-3.03999996,
,,,-22.51999825E-3,-8.800000191,,,,,-22.51999825E-3,-3.03999996,
,,,-22.49999903E-3,-8.800000191,,,,,-22.49999903E-3,-3.03999996,
,,,-22.47999795E-3,-8.800000191,,,,,-22.47999795E-3,-3.03999996,
,,,-22.45999873E-3,-8.800000191,,,,,-22.45999873E-3,-2.96000004,
,,,-22.43999764E-3,-8.800000191,,,,,-22.43999764E-3,-2.96000004,
,,,-22.41999842E-3,-8.800000191,,,,,-22.41999842E-3,-2.96000004,
,,,-22.39999920E-3,-8.800000191,,,,,-22.39999920E-3,-2.96000004,
,,,-22.37999812E-3,-8.000000000,,,,,-22.37999812E-3,-2.96000004,
,,,-22.35999890E-3,-8.000000000,,,,,-22.35999890E-3,-2.96000004,
,,,-22.33999781E-3,-8.000000000,,,,,-22.33999781E-3,-2.96000004,
,,,-22.31999859E-3,-8.000000000,,,,,-22.31999859E-3,-2.96000004,
,,,-22.29999937E-3,-8.000000000,,,,,-22.29999937E-3,-2.96000004,
,,,-22.27999829E-3,-8.000000000,,,,,-22.27999829E-3,-2.87999988,
,,,-22.25999907E-3,-8.000000000,,,,,-22.25999907E-3,-2.87999988,
,,,-22.23999798E-3,-8.000000000,,,,,-22.23999798E-3,-2.87999988,
,,,-22.21999876E-3,-7.20000029,,,,,-22.21999876E-3,-2.87999988,
,,,-22.19999768E-3,-7.20000029,,,,,-22.19999768E-3,-2.87999988,
,,,-22.17999846E-3,-7.20000029,,,,,-22.17999846E-3,-2.87999988,
,,,-22.15999924E-3,-7.20000029,,,,,-22.15999924E-3,-2.87999988,
,,,-22.13999815E-3,-7.20000029,,,,,-22.13999815E-3,-2.79999995,
,,,-22.11999893E-3,-7.20000029,,,,,-22.11999893E-3,-2.79999995,
,,,-22.09999785E-3,-7.20000029,,,,,-22.09999785E-3,-2.79999995,
,,,-22.07999863E-3,-7.20000029,,,,,-22.07999863E-3,-2.79999995,
,,,-22.05999941E-3,-6.40000010,,,,,-22.05999941E-3,-2.79999995,
,,,-22.03999832E-3,-6.40000010,,,,,-22.03999832E-3,-2.79999995,
,,,-22.01999910E-3,-6.40000010,,,,,-22.01999910E-3,-2.79999995,
,,,-21.99999802E-3,-6.40000010,,,,,-21.99999802E-3,-2.72000003,
,,,-21.97999880E-3,-6.40000010,,,,,-21.97999880E-3,-2.72000003,
,,,-21.95999771E-3,-6.40000010,,,,,-21.95999771E-3,-2.72000003,
,,,-21.93999849E-3,-6.40000010,,,,,-21.93999849E-3,-2.72000003,
,,,-21.91999927E-3,-5.59999990,,,,,-21.91999927E-3,-2.72000003,
,,,-21.89999819E-3,-5.59999990,,,,,-21.89999819E-3,-2.72000003,
,,,-21.87999897E-3,-5.59999990,,,,,-21.87999897E-3,-2.6399999,
,,,-21.85999788E-3,-5.59999990,,,,,-21.85999788E-3,-2.6399999,
,,,-21.83999866E-3,-5.59999990,,,,,-21.83999866E-3,-2.6399999,
,,,-21.81999944E-3,-5.59999990,,,,,-21.81999944E-3,-2.6399999,
,,,-21.79999836E-3,-5.59999990,,,,,-21.79999836E-3,-2.6399999,
,,,-21.77999914E-3,-5.59999990,,,,,-21.77999914E-3,-2.6399999,
,,,-21.75999805E-3,-4.80000019,,,,,-21.75999805E-3,-2.6399999,
,,,-21.73999883E-3,-4.80000019,,,,,-21.73999883E-3,-2.6399999,
,,,-21.71999775E-3,-4.80000019,,,,,-21.71999775E-3,-2.5599999,
,,,-21.69999853E-3,-4.80000019,,,,,-21.69999853E-3,-2.5599999,
,,,-21.67999931E-3,-4.80000019,,,,,-21.67999931E-3,-2.5599999,
,,,-21.65999822E-3,-4.80000019,,,,,-21.65999822E-3,-2.5599999,
,,,-21.63999900E-3,-4.80000019,,,,,-21.63999900E-3,-2.5599999,
,,,-21.61999792E-3,-4.80000019,,,,,-21.61999792E-3,-2.4800000,
,,,-21.59999870E-3,-4.80000019,,,,,-21.59999870E-3,-2.4800000,
,,,-21.57999948E-3,-4.00000000,,,,,-21.57999948E-3,-2.4800000,
,,,-21.55999839E-3,-4.00000000,,,,,-21.55999839E-3,-2.4800000,
,,,-21.53999917E-3,-4.00000000,,,,,-21.53999917E-3,-2.4800000,
,,,-21.51999809E-3,-4.00000000,,,,,-21.51999809E-3,-2.4800000,
,,,-21.49999887E-3,-4.00000000,,,,,-21.49999887E-3,-2.3999999,
,,,-21.47999778E-3,-4.00000000,,,,,-21.47999778E-3,-2.3999999,
,,,-21.45999856E-3,-4.00000000,,,,,-21.45999856E-3,-2.3999999,
,,,-21.43999934E-3,-4.00000000,,,,,-21.43999934E-3,-2.3999999,
,,,-21.41999826E-3,-3.20000005,,,,,-21.41999826E-3,-2.3999999,
,,,-21.39999904E-3,-3.20000005,,,,,-21.39999904E-3,-2.3199999,
,,,-21.37999795E-3,-3.20000005,,,,,-21.37999795E-3,-2.3199999,
,,,-21.35999873E-3,-3.20000005,,,,,-21.35999873E-3,-2.3199999,
,,,-21.33999951E-3,-3.20000005,,,,,-21.33999951E-3,-2.3199999,
,,,-21.31999843E-3,-3.20000005,,,,,-21.31999843E-3,-2.3199999,
,,,-21.29999921E-3,-3.20000005,,,,,-21.29999921E-3,-2.2400000,
,,,-21.27999812E-3,-2.4000001,,,,,-21.27999812E-3,-2.2400000,
,,,-21.25999890E-3,-2.4000001,,,,,-21.25999890E-3,-2.2400000,
,,,-21.23999782E-3,-2.4000001,,,,,-21.23999782E-3,-2.2400000,
,,,-21.21999860E-3,-2.4000001,,,,,-21.21999860E-3,-2.2400000,
,,,-21.19999938E-3,-2.4000001,,,,,-21.19999938E-3,-2.1599998,
,,,-21.17999829E-3,-2.4000001,,,,,-21.17999829E-3,-2.1599998,
,,,-21.15999907E-3,-2.4000001,,,,,-21.15999907E-3,-2.1599998,
,,,-21.13999799E-3,-2.4000001,,,,,-21.13999799E-3,-2.1599998,
,,,-21.11999877E-3,-1.6000000,,,,,-21.11999877E-3,-2.1599998,
,,,-21.09999768E-3,-1.6000000,,,,,-21.09999768E-3,-2.0799999,
,,,-21.07999846E-3,-1.6000000,,,,,-21.07999846E-3,-2.0799999,
,,,-21.05999924E-3,-1.6000000,,,,,-21.05999924E-3,-2.0799999,
,,,-21.03999816E-3,-1.6000000,,,,,-21.03999816E-3,-2.0799999,
,,,-21.01999894E-3,-1.6000000,,,,,-21.01999894E-3,-2.0799999,
,,,-20.99999785E-3,-1.6000000,,,,,-20.99999785E-3,-2.0000000,
,,,-20.97999863E-3,-800.000011921E-3,,,,,-20.97999863E-3,-2.0000000,
,,,-20.95999941E-3,-800.000011921E-3,,,,,-20.95999941E-3,-2.0000000,
,,,-20.93999833E-3,-800.000011921E-3,,,,,-20.93999833E-3,-2.0000000,
,,,-20.91999911E-3,-800.000011921E-3,,,,,-20.91999911E-3,-1.9200000,
,,,-20.89999802E-3,-800.000011921E-3,,,,,-20.89999802E-3,-1.9200000,
,,,-20.87999880E-3,-800.000011921E-3,,,,,-20.87999880E-3,-1.9200000,
,,,-20.85999772E-3,-800.000011921E-3,,,,,-20.85999772E-3,-1.9200000,
,,,-20.83999850E-3,-800.000011921E-3,,,,,-20.83999850E-3,-1.8399999,
,,,-20.81999928E-3,0.0,,,,,-20.81999928E-3,-1.8399999,
,,,-20.79999819E-3,0.0,,,,,-20.79999819E-3,-1.8399999,
,,,-20.77999897E-3,0.0,,,,,-20.77999897E-3,-1.8399999,
,,,-20.75999789E-3,0.0,,,,,-20.75999789E-3,-1.8399999,
,,,-20.73999867E-3,0.0,,,,,-20.73999867E-3,-1.8399999,
,,,-20.71999945E-3,0.0,,,,,-20.71999945E-3,-1.7600000,
,,,-20.69999836E-3,0.0,,,,,-20.69999836E-3,-1.7600000,
,,,-20.67999914E-3,0.0,,,,,-20.67999914E-3,-1.7600000,
,,,-20.65999806E-3,0.0,,,,,-20.65999806E-3,-1.7600000,
,,,-20.63999884E-3,800.000011921E-3,,,,,-20.63999884E-3,-1.6799999,
,,,-20.61999775E-3,800.000011921E-3,,,,,-20.61999775E-3,-1.6799999,
,,,-20.59999853E-3,800.000011921E-3,,,,,-20.59999853E-3,-1.6799999,
,,,-20.57999931E-3,800.000011921E-3,,,,,-20.57999931E-3,-1.6799999,
,,,-20.55999823E-3,800.000011921E-3,,,,,-20.55999823E-3,-1.5999999,
,,,-20.53999901E-3,800.000011921E-3,,,,,-20.53999901E-3,-1.5999999,
,,,-20.51999792E-3,800.000011921E-3,,,,,-20.51999792E-3,-1.5999999,
,,,-20.49999870E-3,800.000011921E-3,,,,,-20.49999870E-3,-1.5999999,
,,,-20.47999948E-3,1.6000000,,,,,-20.47999948E-3,-1.5200000,
,,,-20.45999840E-3,1.6000000,,,,,-20.45999840E-3,-1.5200000,
,,,-20.43999918E-3,1.6000000,,,,,-20.43999918E-3,-1.5200000,
,,,-20.41999809E-3,1.6000000,,,,,-20.41999809E-3,-1.4399999,
,,,-20.39999887E-3,1.6000000,,,,,-20.39999887E-3,-1.4399999,
,,,-20.37999779E-3,1.6000000,,,,,-20.37999779E-3,-1.4399999,
,,,-20.35999857E-3,1.6000000,,,,,-20.35999857E-3,-1.4399999,
,,,-20.33999935E-3,1.6000000,,,,,-20.33999935E-3,-1.3600000,
,,,-20.31999826E-3,2.4000001,,,,,-20.31999826E-3,-1.3600000,
,,,-20.29999904E-3,1.6000000,,,,,-20.29999904E-3,-1.3600000,
,,,-20.27999796E-3,2.4000001,,,,,-20.27999796E-3,-1.2800000,
,,,-20.25999874E-3,2.4000001,,,,,-20.25999874E-3,-1.2800000,
,,,-20.23999952E-3,2.4000001,,,,,-20.23999952E-3,-1.2800000,
,,,-20.21999843E-3,2.4000001,,,,,-20.21999843E-3,-1.2800000,
,,,-20.19999921E-3,2.4000001,,,,,-20.19999921E-3,-1.1999999,
,,,-20.17999813E-3,2.4000001,,,,,-20.17999813E-3,-1.1999999,
,,,-20.15999891E-3,2.4000001,,,,,-20.15999891E-3,-1.1999999,
,,,-20.13999783E-3,2.4000001,,,,,-20.13999783E-3,-1.1999999,
,,,-20.11999860E-3,2.4000001,,,,,-20.11999860E-3,-1.1200000,
,,,-20.09999938E-3,2.4000001,,,,,-20.09999938E-3,-1.1200000,
,,,-20.0799983E-3,3.20000005,,,,,-20.0799983E-3,-1.1200000,
,,,-20.0599991E-3,3.20000005,,,,,-20.0599991E-3,-1.1200000,
,,,-20.0399980E-3,3.20000005,,,,,-20.0399980E-3,-1.0400000,
,,,-20.0199988E-3,3.20000005,,,,,-20.0199988E-3,-1.0400000,
,,,-19.9999996E-3,3.20000005,,,,,-19.9999996E-3,-1.0400000,
,,,-19.9799985E-3,3.20000005,,,,,-19.9799985E-3,-1.0400000,
,,,-19.9599992E-3,3.20000005,,,,,-19.9599992E-3,-959.999978542E-3,
,,,-19.9399982E-3,3.20000005,,,,,-19.9399982E-3,-959.999978542E-3,
,,,-19.9199989E-3,3.20000005,,,,,-19.9199989E-3,-959.999978542E-3,
,,,-19.8999979E-3,4.00000000,,,,,-19.8999979E-3,-959.999978542E-3,
,,,-19.8799986E-3,4.00000000,,,,,-19.8799986E-3,-879.999995232E-3,
,,,-19.8599994E-3,4.00000000,,,,,-19.8599994E-3,-879.999995232E-3,
,,,-19.8399983E-3,4.00000000,,,,,-19.8399983E-3,-879.999995232E-3,
,,,-19.8199991E-3,4.00000000,,,,,-19.8199991E-3,-879.999995232E-3,
,,,-19.7999980E-3,4.00000000,,,,,-19.7999980E-3,-799.999952316E-3,
,,,-19.7799988E-3,4.00000000,,,,,-19.7799988E-3,-799.999952316E-3,
,,,-19.7599977E-3,4.00000000,,,,,-19.7599977E-3,-799.999952316E-3,
,,,-19.7399985E-3,4.00000000,,,,,-19.7399985E-3,-719.999969006E-3,
,,,-19.7199993E-3,4.00000000,,,,,-19.7199993E-3,-719.999969006E-3,
,,,-19.6999982E-3,4.80000019,,,,,-19.6999982E-3,-719.999969006E-3,
,,,-19.6799990E-3,4.80000019,,,,,-19.6799990E-3,-639.999985695E-3,
,,,-19.6599979E-3,4.80000019,,,,,-19.6599979E-3,-639.999985695E-3,
,,,-19.6399987E-3,4.80000019,,,,,-19.6399987E-3,-639.999985695E-3,
,,,-19.6199995E-3,4.80000019,,,,,-19.6199995E-3,-639.999985695E-3,
,,,-19.5999984E-3,4.80000019,,,,,-19.5999984E-3,-560.000002384E-3,
,,,-19.5799991E-3,4.80000019,,,,,-19.5799991E-3,-560.000002384E-3,
,,,-19.5599981E-3,4.80000019,,,,,-19.5599981E-3,-560.000002384E-3,
,,,-19.5399988E-3,4.80000019,,,,,-19.5399988E-3,-479.999989271E-3,
,,,-19.5199978E-3,5.59999990,,,,,-19.5199978E-3,-479.999989271E-3,
,,,-19.4999985E-3,5.59999990,,,,,-19.4999985E-3,-479.999989271E-3,
,,,-19.4799993E-3,5.59999990,,,,,-19.4799993E-3,-399.99997616E-3,
,,,-19.4599982E-3,5.59999990,,,,,-19.4599982E-3,-399.99997616E-3,
,,,-19.4399990E-3,5.59999990,,,,,-19.4399990E-3,-399.99997616E-3,
,,,-19.4199979E-3,5.59999990,,,,,-19.4199979E-3,-399.99997616E-3,
,,,-19.3999987E-3,5.59999990,,,,,-19.3999987E-3,-319.99999285E-3,
,,,-19.3799995E-3,5.59999990,,,,,-19.3799995E-3,-319.99999285E-3,
,,,-19.3599984E-3,5.59999990,,,,,-19.3599984E-3,-319.99999285E-3,
,,,-19.3399992E-3,5.59999990,,,,,-19.3399992E-3,-319.99999285E-3,
,,,-19.3199981E-3,5.59999990,,,,,-19.3199981E-3,-239.99999464E-3,
,,,-19.2999989E-3,6.40000010,,,,,-19.2999989E-3,-239.99999464E-3,
,,,-19.2799978E-3,6.40000010,,,,,-19.2799978E-3,-239.99999464E-3,
,,,-19.2599986E-3,6.40000010,,,,,-19.2599986E-3,-159.99999642E-3,
,,,-19.2399994E-3,6.40000010,,,,,-19.2399994E-3,-159.99999642E-3,
,,,-19.2199983E-3,6.40000010,,,,,-19.2199983E-3,-159.99999642E-3,
,,,-19.1999990E-3,6.40000010,,,,,-19.1999990E-3,-79.999998212E-3,
,,,-19.1799980E-3,6.40000010,,,,,-19.1799980E-3,-79.999998212E-3,
,,,-19.1599987E-3,6.40000010,,,,,-19.1599987E-3,-79.999998212E-3,
,,,-19.1399995E-3,6.40000010,,,,,-19.1399995E-3,0.0,
,,,-19.1199984E-3,6.40000010,,,,,-19.1199984E-3,0.0,
,,,-19.0999992E-3,7.20000029,,,,,-19.0999992E-3,0.0,
,,,-19.0799981E-3,7.20000029,,,,,-19.0799981E-3,79.999998212E-3,
,,,-19.0599989E-3,7.20000029,,,,,-19.0599989E-3,79.999998212E-3,
,,,-19.0399978E-3,7.20000029,,,,,-19.0399978E-3,159.99999642E-3,
,,,-19.0199986E-3,7.20000029,,,,,-19.0199986E-3,159.99999642E-3,
,,,-18.9999994E-3,7.20000029,,,,,-18.9999994E-3,159.99999642E-3,
,,,-18.9799983E-3,7.20000029,,,,,-18.9799983E-3,159.99999642E-3,
,,,-18.9599991E-3,7.20000029,,,,,-18.9599991E-3,239.99999464E-3,
,,,-18.9399980E-3,7.20000029,,,,,-18.9399980E-3,239.99999464E-3,
