Magnetism/harhava/data/reg/Harhava_material2_1sheet_0_space.csv

Record Length,2500,Points,-250.00000000E-3,-12.8000002,,Record Length,2500,Points,-250.00000000E-3,-1.9200000,
Sample Interval,199.99999495E-6,s,-249.79999661E-3,-9.600000381,,Sample Interval,199.99999495E-6,s,-249.79999661E-3,-1.7600000,
Trigger Point,1.2500001E3,Samples,-249.59999323E-3,-7.20000029,,Trigger Point,1.2500001E3,Samples,-249.59999323E-3,-1.6799999,
,,,-249.40000474E-3,-4.00000000,,,,,-249.40000474E-3,-1.4399999,
,,,-249.20000136E-3,-1.6000000,,,,,-249.20000136E-3,-1.2800000,
,,,-248.99999797E-3,800.000011921E-3,,,,,-248.99999797E-3,-1.1200000,
Source,CH1,,-248.79999459E-3,4.00000000,,Source,CH2,,-248.79999459E-3,-879.999995232E-3,
Vertical Units,Volts,,-248.60000610E-3,4.80000019,,Vertical Units,Volts,,-248.60000610E-3,-639.999985695E-3,
Vertical Scale,20.0000003,,-248.40000272E-3,7.20000029,,Vertical Scale,2.0000000,,-248.40000272E-3,-399.99997616E-3,
Vertical Offset,0,,-248.19999933E-3,8.800000191,,Vertical Offset,0,,-248.19999933E-3,-79.999998212E-3,
Horizontal Units,s,,-247.99999595E-3,10.4000006,,Horizontal Units,s,,-247.99999595E-3,239.99999464E-3,
Horizontal Scale,49.99999874E-3,,-247.80000746E-3,12.0000000,,Horizontal Scale,49.99999874E-3,,-247.80000746E-3,479.999989271E-3,
Pt Fmt,Y,,-247.60000408E-3,13.6000004,,Pt Fmt,Y,,-247.60000408E-3,879.999995232E-3,
Yzero,0.0,,-247.40000069E-3,15.1999998,,Yzero,0.0,,-247.40000069E-3,1.1999999,
Probe Atten,10.0000000,,-247.19999731E-3,18.3999996,,Probe Atten,10.0000000,,-247.19999731E-3,1.5200000,
,,,-246.99999392E-3,20.0000000,,,,,-246.99999392E-3,1.7600000,
Note,TBS 1052B-EDU - 16:43:57   27/11/2024,,-246.80000544E-3,23.20000076,,Note,TBS 1052B-EDU - 16:43:57   27/11/2024,,-246.80000544E-3,2.0000000,
,,,-246.60000205E-3,27.20000076,,,,,-246.60000205E-3,2.0799999,
,,,-246.39999866E-3,30.39999962,,,,,-246.39999866E-3,2.1599998,
,,,-246.19999528E-3,33.60000229,,,,,-246.19999528E-3,2.2400000,
,,,-246.00000679E-3,36.79999924,,,,,-246.00000679E-3,2.3199999,
,,,-245.80000341E-3,40.00000000,,,,,-245.80000341E-3,2.3999999,
,,,-245.60000002E-3,42.40000153,,,,,-245.60000002E-3,2.4800000,
,,,-245.39999664E-3,44.79999924,,,,,-245.39999664E-3,2.4800000,
,,,-245.19999325E-3,47.20000076,,,,,-245.19999325E-3,2.6399999,
,,,-245.00000477E-3,48.79999924,,,,,-245.00000477E-3,2.5599999,
,,,-244.80000138E-3,50.40000153,,,,,-244.80000138E-3,2.5599999,
,,,-244.59999800E-3,52.00000000,,,,,-244.59999800E-3,2.6399999,
,,,-244.39999461E-3,53.60000229,,,,,-244.39999461E-3,2.6399999,
,,,-244.20000613E-3,53.60000229,,,,,-244.20000613E-3,2.5599999,
,,,-244.00000274E-3,54.40000153,,,,,-244.00000274E-3,2.6399999,
,,,-243.79999936E-3,54.40000153,,,,,-243.79999936E-3,2.6399999,
,,,-243.59999597E-3,53.60000229,,,,,-243.59999597E-3,2.6399999,
,,,-243.40000749E-3,52.79999924,,,,,-243.40000749E-3,2.6399999,
,,,-243.20000410E-3,52.00000000,,,,,-243.20000410E-3,2.6399999,
,,,-243.00000072E-3,50.40000153,,,,,-243.00000072E-3,2.5599999,
,,,-242.79999733E-3,49.60000229,,,,,-242.79999733E-3,2.5599999,
,,,-242.59999394E-3,48.00000000,,,,,-242.59999394E-3,2.5599999,
,,,-242.40000546E-3,46.40000153,,,,,-242.40000546E-3,2.5599999,
,,,-242.20000207E-3,44.00000000,,,,,-242.20000207E-3,2.4800000,
,,,-241.99999869E-3,41.60000229,,,,,-241.99999869E-3,2.4800000,
,,,-241.79999530E-3,39.20000076,,,,,-241.79999530E-3,2.3999999,
,,,-241.60000682E-3,36.79999924,,,,,-241.60000682E-3,2.3999999,
,,,-241.40000343E-3,34.40000153,,,,,-241.40000343E-3,2.3199999,
,,,-241.20000005E-3,32.00000000,,,,,-241.20000005E-3,2.3199999,
,,,-240.99999666E-3,28.80000114,,,,,-240.99999666E-3,2.2400000,
,,,-240.79999328E-3,26.39999962,,,,,-240.79999328E-3,2.1599998,
,,,-240.60000479E-3,22.39999962,,,,,-240.60000479E-3,2.1599998,
,,,-240.40000141E-3,19.2000008,,,,,-240.40000141E-3,2.0799999,
,,,-240.19999802E-3,16.8000011,,,,,-240.19999802E-3,2.0799999,
,,,-239.99999464E-3,13.6000004,,,,,-239.99999464E-3,1.9200000,
,,,-239.80000615E-3,10.4000006,,,,,-239.80000615E-3,1.8399999,
,,,-239.60000277E-3,8.000000000,,,,,-239.60000277E-3,1.6799999,
,,,-239.39999938E-3,4.80000019,,,,,-239.39999938E-3,1.5200000,
,,,-239.19999599E-3,2.4000001,,,,,-239.19999599E-3,1.2800000,
,,,-239.00000751E-3,0.0,,,,,-239.00000751E-3,1.1999999,
,,,-238.80000412E-3,-2.4000001,,,,,-238.80000412E-3,959.999978542E-3,
,,,-238.60000074E-3,-4.80000019,,,,,-238.60000074E-3,719.999969006E-3,
,,,-238.39999735E-3,-6.40000010,,,,,-238.39999735E-3,399.99997616E-3,
,,,-238.19999397E-3,-8.000000000,,,,,-238.19999397E-3,159.99999642E-3,
,,,-238.00000548E-3,-9.600000381,,,,,-238.00000548E-3,-239.99999464E-3,
,,,-237.80000210E-3,-11.1999998,,,,,-237.80000210E-3,-479.999989271E-3,
,,,-237.59999871E-3,-12.8000002,,,,,-237.59999871E-3,-799.999952316E-3,
,,,-237.39999533E-3,-14.4000006,,,,,-237.39999533E-3,-1.1200000,
,,,-237.20000684E-3,-17.6000004,,,,,-237.20000684E-3,-1.4399999,
,,,-237.00000346E-3,-20.0000000,,,,,-237.00000346E-3,-1.6799999,
,,,-236.80000007E-3,-23.20000076,,,,,-236.80000007E-3,-1.9200000,
,,,-236.59999669E-3,-26.39999962,,,,,-236.59999669E-3,-2.0799999,
,,,-236.39999330E-3,-29.60000038,,,,,-236.39999330E-3,-2.1599998,
,,,-236.20000482E-3,-33.60000229,,,,,-236.20000482E-3,-2.2400000,
,,,-236.00000143E-3,-36.00000000,,,,,-236.00000143E-3,-2.3199999,
,,,-235.79999804E-3,-39.20000076,,,,,-235.79999804E-3,-2.3999999,
,,,-235.59999466E-3,-41.60000229,,,,,-235.59999466E-3,-2.3999999,
,,,-235.40000618E-3,-44.00000000,,,,,-235.40000618E-3,-2.4800000,
,,,-235.20000279E-3,-46.40000153,,,,,-235.20000279E-3,-2.4800000,
,,,-234.99999940E-3,-48.79999924,,,,,-234.99999940E-3,-2.5599999,
,,,-234.79999602E-3,-49.60000229,,,,,-234.79999602E-3,-2.5599999,
,,,-234.60000753E-3,-51.20000076,,,,,-234.60000753E-3,-2.5599999,
,,,-234.40000415E-3,-52.00000000,,,,,-234.40000415E-3,-2.5599999,
,,,-234.20000076E-3,-52.79999924,,,,,-234.20000076E-3,-2.6399999,
,,,-233.99999738E-3,-53.60000229,,,,,-233.99999738E-3,-2.6399999,
,,,-233.79999399E-3,-52.79999924,,,,,-233.79999399E-3,-2.5599999,
,,,-233.60000551E-3,-52.79999924,,,,,-233.60000551E-3,-2.5599999,
,,,-233.40000212E-3,-52.00000000,,,,,-233.40000212E-3,-2.5599999,
,,,-233.19999874E-3,-52.00000000,,,,,-233.19999874E-3,-2.5599999,
,,,-232.99999535E-3,-50.40000153,,,,,-232.99999535E-3,-2.5599999,
,,,-232.80000687E-3,-48.79999924,,,,,-232.80000687E-3,-2.5599999,
,,,-232.60000348E-3,-47.20000076,,,,,-232.60000348E-3,-2.5599999,
,,,-232.40000010E-3,-44.79999924,,,,,-232.40000010E-3,-2.4800000,
,,,-232.19999671E-3,-43.20000076,,,,,-232.19999671E-3,-2.4800000,
,,,-231.99999332E-3,-40.79999924,,,,,-231.99999332E-3,-2.3999999,
,,,-231.80000484E-3,-38.40000153,,,,,-231.80000484E-3,-2.3999999,
,,,-231.60000145E-3,-36.79999924,,,,,-231.60000145E-3,-2.3199999,
,,,-231.39999807E-3,-33.60000229,,,,,-231.39999807E-3,-2.3199999,
,,,-231.19999468E-3,-31.20000076,,,,,-231.19999468E-3,-2.2400000,
,,,-231.00000620E-3,-28.00000000,,,,,-231.00000620E-3,-2.2400000,
,,,-230.80000281E-3,-25.60000038,,,,,-230.80000281E-3,-2.1599998,
,,,-230.59999943E-3,-22.39999962,,,,,-230.59999943E-3,-2.0799999,
,,,-230.39999604E-3,-19.2000008,,,,,-230.39999604E-3,-2.0000000,
,,,-230.20000756E-3,-16.0000000,,,,,-230.20000756E-3,-1.9200000,
,,,-230.00000417E-3,-12.8000002,,,,,-230.00000417E-3,-1.8399999,
,,,-229.80000079E-3,-10.4000006,,,,,-229.80000079E-3,-1.7600000,
,,,-229.59999740E-3,-7.20000029,,,,,-229.59999740E-3,-1.6799999,
,,,-229.39999402E-3,-4.00000000,,,,,-229.39999402E-3,-1.4399999,
,,,-229.20000553E-3,-1.6000000,,,,,-229.20000553E-3,-1.2800000,
,,,-229.00000215E-3,800.000011921E-3,,,,,-229.00000215E-3,-1.1200000,
,,,-228.79999876E-3,3.20000005,,,,,-228.79999876E-3,-959.999978542E-3,
,,,-228.59999537E-3,4.80000019,,,,,-228.59999537E-3,-719.999969006E-3,
,,,-228.40000689E-3,6.40000010,,,,,-228.40000689E-3,-399.99997616E-3,
,,,-228.20000350E-3,8.800000191,,,,,-228.20000350E-3,-79.999998212E-3,
,,,-228.00000012E-3,9.600000381,,,,,-228.00000012E-3,239.99999464E-3,
,,,-227.79999673E-3,11.1999998,,,,,-227.79999673E-3,479.999989271E-3,
,,,-227.59999335E-3,12.8000002,,,,,-227.59999335E-3,879.999995232E-3,
,,,-227.40000486E-3,15.1999998,,,,,-227.40000486E-3,1.1999999,
,,,-227.20000148E-3,17.6000004,,,,,-227.20000148E-3,1.5200000,
,,,-226.99999809E-3,20.0000000,,,,,-226.99999809E-3,1.7600000,
,,,-226.79999471E-3,24.00000000,,,,,-226.79999471E-3,1.9200000,
,,,-226.60000622E-3,27.20000076,,,,,-226.60000622E-3,2.0799999,
,,,-226.40000284E-3,30.39999962,,,,,-226.40000284E-3,2.2400000,
,,,-226.19999945E-3,33.60000229,,,,,-226.19999945E-3,2.3199999,
,,,-225.99999607E-3,36.79999924,,,,,-225.99999607E-3,2.3199999,
,,,-225.80000758E-3,40.00000000,,,,,-225.80000758E-3,2.3999999,
,,,-225.60000420E-3,42.40000153,,,,,-225.60000420E-3,2.4800000,
,,,-225.40000081E-3,44.79999924,,,,,-225.40000081E-3,2.4800000,
,,,-225.19999743E-3,47.20000076,,,,,-225.19999743E-3,2.4800000,
,,,-224.99999404E-3,49.60000229,,,,,-224.99999404E-3,2.5599999,
,,,-224.80000556E-3,50.40000153,,,,,-224.80000556E-3,2.5599999,
,,,-224.60000217E-3,52.00000000,,,,,-224.60000217E-3,2.6399999,
,,,-224.39999878E-3,52.79999924,,,,,-224.39999878E-3,2.6399999,
,,,-224.19999540E-3,53.60000229,,,,,-224.19999540E-3,2.6399999,
,,,-224.00000691E-3,54.40000153,,,,,-224.00000691E-3,2.6399999,
,,,-223.80000353E-3,54.40000153,,,,,-223.80000353E-3,2.6399999,
,,,-223.60000014E-3,53.60000229,,,,,-223.60000014E-3,2.6399999,
,,,-223.39999676E-3,53.60000229,,,,,-223.39999676E-3,2.6399999,
,,,-223.19999337E-3,52.79999924,,,,,-223.19999337E-3,2.5599999,
,,,-223.00000489E-3,51.20000076,,,,,-223.00000489E-3,2.5599999,
,,,-222.80000150E-3,49.60000229,,,,,-222.80000150E-3,2.5599999,
,,,-222.59999812E-3,48.00000000,,,,,-222.59999812E-3,2.4800000,
,,,-222.39999473E-3,46.40000153,,,,,-222.39999473E-3,2.5599999,
,,,-222.20000625E-3,44.79999924,,,,,-222.20000625E-3,2.4800000,
,,,-222.00000286E-3,42.40000153,,,,,-222.00000286E-3,2.4800000,
,,,-221.79999948E-3,40.00000000,,,,,-221.79999948E-3,2.3999999,
,,,-221.59999609E-3,37.60000229,,,,,-221.59999609E-3,2.3199999,
,,,-221.40000761E-3,34.40000153,,,,,-221.40000761E-3,2.3199999,
,,,-221.20000422E-3,32.00000000,,,,,-221.20000422E-3,2.3199999,
,,,-221.00000083E-3,28.80000114,,,,,-221.00000083E-3,2.3199999,
,,,-220.79999745E-3,26.39999962,,,,,-220.79999745E-3,2.1599998,
,,,-220.59999406E-3,23.20000076,,,,,-220.59999406E-3,2.1599998,
,,,-220.40000558E-3,20.0000000,,,,,-220.40000558E-3,2.0799999,
,,,-220.20000219E-3,16.8000011,,,,,-220.20000219E-3,2.0000000,
,,,-219.99999881E-3,13.6000004,,,,,-219.99999881E-3,1.9200000,
,,,-219.79999542E-3,10.4000006,,,,,-219.79999542E-3,1.8399999,
,,,-219.60000694E-3,8.000000000,,,,,-219.60000694E-3,1.6799999,
,,,-219.40000355E-3,4.80000019,,,,,-219.40000355E-3,1.5200000,
,,,-219.20000017E-3,2.4000001,,,,,-219.20000017E-3,1.3600000,
,,,-218.99999678E-3,0.0,,,,,-218.99999678E-3,1.1999999,
,,,-218.79999340E-3,-2.4000001,,,,,-218.79999340E-3,959.999978542E-3,
,,,-218.60000491E-3,-4.80000019,,,,,-218.60000491E-3,719.999969006E-3,
,,,-218.40000153E-3,-6.40000010,,,,,-218.40000153E-3,479.999989271E-3,
,,,-218.19999814E-3,-8.000000000,,,,,-218.19999814E-3,159.99999642E-3,
,,,-217.99999475E-3,-9.600000381,,,,,-217.99999475E-3,-159.99999642E-3,
,,,-217.80000627E-3,-11.1999998,,,,,-217.80000627E-3,-479.999989271E-3,
,,,-217.60000288E-3,-12.8000002,,,,,-217.60000288E-3,-879.999995232E-3,
,,,-217.39999950E-3,-14.4000006,,,,,-217.39999950E-3,-1.1200000,
,,,-217.19999611E-3,-16.8000011,,,,,-217.19999611E-3,-1.4399999,
,,,-217.00000763E-3,-20.0000000,,,,,-217.00000763E-3,-1.6799999,
,,,-216.80000424E-3,-22.39999962,,,,,-216.80000424E-3,-1.8399999,
,,,-216.60000086E-3,-26.39999962,,,,,-216.60000086E-3,-2.0799999,
,,,-216.39999747E-3,-29.60000038,,,,,-216.39999747E-3,-2.1599998,
,,,-216.19999409E-3,-32.79999924,,,,,-216.19999409E-3,-2.2400000,
,,,-216.00000560E-3,-36.00000000,,,,,-216.00000560E-3,-2.3199999,
,,,-215.80000222E-3,-38.40000153,,,,,-215.80000222E-3,-2.3199999,
,,,-215.59999883E-3,-41.60000229,,,,,-215.59999883E-3,-2.3999999,
,,,-215.39999545E-3,-44.00000000,,,,,-215.39999545E-3,-2.4800000,
,,,-215.20000696E-3,-45.60000229,,,,,-215.20000696E-3,-2.4800000,
,,,-215.00000358E-3,-48.00000000,,,,,-215.00000358E-3,-2.5599999,
,,,-214.80000019E-3,-49.60000229,,,,,-214.80000019E-3,-2.5599999,
,,,-214.59999681E-3,-51.20000076,,,,,-214.59999681E-3,-2.6399999,
,,,-214.40000832E-3,-52.00000000,,,,,-214.40000832E-3,-2.5599999,
,,,-214.20000494E-3,-52.79999924,,,,,-214.20000494E-3,-2.6399999,
,,,-214.00000155E-3,-52.79999924,,,,,-214.00000155E-3,-2.5599999,
,,,-213.79999816E-3,-53.60000229,,,,,-213.79999816E-3,-2.6399999,
,,,-213.59999478E-3,-52.79999924,,,,,-213.59999478E-3,-2.5599999,
,,,-213.40000629E-3,-52.00000000,,,,,-213.40000629E-3,-2.5599999,
,,,-213.20000291E-3,-52.00000000,,,,,-213.20000291E-3,-2.5599999,
,,,-212.99999952E-3,-50.40000153,,,,,-212.99999952E-3,-2.5599999,
,,,-212.79999614E-3,-48.79999924,,,,,-212.79999614E-3,-2.5599999,
,,,-212.60000765E-3,-47.20000076,,,,,-212.60000765E-3,-2.5599999,
,,,-212.40000427E-3,-45.60000229,,,,,-212.40000427E-3,-2.4800000,
,,,-212.20000088E-3,-44.00000000,,,,,-212.20000088E-3,-2.4800000,
,,,-211.99999750E-3,-41.60000229,,,,,-211.99999750E-3,-2.3999999,
,,,-211.79999411E-3,-39.20000076,,,,,-211.79999411E-3,-2.3999999,
,,,-211.60000563E-3,-36.79999924,,,,,-211.60000563E-3,-2.3999999,
,,,-211.40000224E-3,-33.60000229,,,,,-211.40000224E-3,-2.3199999,
,,,-211.19999886E-3,-31.20000076,,,,,-211.19999886E-3,-2.2400000,
,,,-210.99999547E-3,-28.80000114,,,,,-210.99999547E-3,-2.2400000,
,,,-210.80000699E-3,-25.60000038,,,,,-210.80000699E-3,-2.1599998,
,,,-210.60000360E-3,-22.39999962,,,,,-210.60000360E-3,-2.0799999,
,,,-210.40000021E-3,-19.2000008,,,,,-210.40000021E-3,-2.0000000,
,,,-210.19999683E-3,-16.0000000,,,,,-210.19999683E-3,-1.9200000,
,,,-210.00000834E-3,-12.8000002,,,,,-210.00000834E-3,-1.9200000,
,,,-209.80000496E-3,-9.600000381,,,,,-209.80000496E-3,-1.7600000,
,,,-209.60000157E-3,-7.20000029,,,,,-209.60000157E-3,-1.5999999,
,,,-209.39999819E-3,-4.00000000,,,,,-209.39999819E-3,-1.5200000,
,,,-209.19999480E-3,-1.6000000,,,,,-209.19999480E-3,-1.2800000,
,,,-209.00000632E-3,800.000011921E-3,,,,,-209.00000632E-3,-1.1200000,
,,,-208.80000293E-3,3.20000005,,,,,-208.80000293E-3,-959.999978542E-3,
,,,-208.59999955E-3,4.80000019,,,,,-208.59999955E-3,-719.999969006E-3,
,,,-208.39999616E-3,7.20000029,,,,,-208.39999616E-3,-479.999989271E-3,
,,,-208.20000768E-3,8.800000191,,,,,-208.20000768E-3,-159.99999642E-3,
,,,-208.00000429E-3,10.4000006,,,,,-208.00000429E-3,239.99999464E-3,
,,,-207.80000091E-3,11.1999998,,,,,-207.80000091E-3,479.999989271E-3,
,,,-207.59999752E-3,13.6000004,,,,,-207.59999752E-3,879.999995232E-3,
,,,-207.39999413E-3,15.1999998,,,,,-207.39999413E-3,1.1999999,
,,,-207.20000565E-3,17.6000004,,,,,-207.20000565E-3,1.4399999,
,,,-207.00000226E-3,20.0000000,,,,,-207.00000226E-3,1.7600000,
,,,-206.79999888E-3,23.20000076,,,,,-206.79999888E-3,2.0799999,
,,,-206.59999549E-3,27.20000076,,,,,-206.59999549E-3,2.0799999,
,,,-206.40000701E-3,30.39999962,,,,,-206.40000701E-3,2.1599998,
,,,-206.20000362E-3,33.60000229,,,,,-206.20000362E-3,2.2400000,
,,,-206.00000024E-3,36.79999924,,,,,-206.00000024E-3,2.3199999,
,,,-205.79999685E-3,40.00000000,,,,,-205.79999685E-3,2.3999999,
,,,-205.60000837E-3,42.40000153,,,,,-205.60000837E-3,2.3999999,
,,,-205.40000498E-3,44.79999924,,,,,-205.40000498E-3,2.4800000,
,,,-205.20000160E-3,47.20000076,,,,,-205.20000160E-3,2.5599999,
,,,-204.99999821E-3,49.60000229,,,,,-204.99999821E-3,2.5599999,
,,,-204.79999483E-3,50.40000153,,,,,-204.79999483E-3,2.5599999,
,,,-204.60000634E-3,52.00000000,,,,,-204.60000634E-3,2.5599999,
,,,-204.40000296E-3,52.79999924,,,,,-204.40000296E-3,2.6399999,
,,,-204.19999957E-3,53.60000229,,,,,-204.19999957E-3,2.6399999,
,,,-203.99999619E-3,54.40000153,,,,,-203.99999619E-3,2.6399999,
,,,-203.80000770E-3,53.60000229,,,,,-203.80000770E-3,2.5599999,
,,,-203.60000432E-3,53.60000229,,,,,-203.60000432E-3,2.6399999,
,,,-203.40000093E-3,52.79999924,,,,,-203.40000093E-3,2.6399999,
,,,-203.19999754E-3,52.00000000,,,,,-203.19999754E-3,2.5599999,
,,,-202.99999416E-3,51.20000076,,,,,-202.99999416E-3,2.5599999,
,,,-202.80000567E-3,49.60000229,,,,,-202.80000567E-3,2.6399999,
,,,-202.60000229E-3,48.00000000,,,,,-202.60000229E-3,2.5599999,
,,,-202.39999890E-3,46.40000153,,,,,-202.39999890E-3,2.4800000,
,,,-202.19999552E-3,44.79999924,,,,,-202.19999552E-3,2.4800000,
,,,-202.00000703E-3,42.40000153,,,,,-202.00000703E-3,2.4800000,
,,,-201.80000365E-3,39.20000076,,,,,-201.80000365E-3,2.4800000,
,,,-201.60000026E-3,37.60000229,,,,,-201.60000026E-3,2.3999999,
,,,-201.39999688E-3,34.40000153,,,,,-201.39999688E-3,2.3999999,
,,,-201.20000839E-3,32.00000000,,,,,-201.20000839E-3,2.3199999,
,,,-201.00000501E-3,28.80000114,,,,,-201.00000501E-3,2.2400000,
,,,-200.80000162E-3,26.39999962,,,,,-200.80000162E-3,2.2400000,
,,,-200.59999824E-3,23.20000076,,,,,-200.59999824E-3,2.1599998,
,,,-200.39999485E-3,20.0000000,,,,,-200.39999485E-3,2.0799999,
,,,-200.20000637E-3,16.8000011,,,,,-200.20000637E-3,2.0000000,
,,,-200.00000298E-3,13.6000004,,,,,-200.00000298E-3,1.9200000,
,,,-199.79999959E-3,10.4000006,,,,,-199.79999959E-3,1.8399999,
,,,-199.59999621E-3,8.000000000,,,,,-199.59999621E-3,1.6799999,
,,,-199.40000772E-3,4.80000019,,,,,-199.40000772E-3,1.5999999,
,,,-199.20000434E-3,2.4000001,,,,,-199.20000434E-3,1.4399999,
,,,-199.00000095E-3,0.0,,,,,-199.00000095E-3,1.1999999,
,,,-198.79999757E-3,-2.4000001,,,,,-198.79999757E-3,959.999978542E-3,
,,,-198.59999418E-3,-4.00000000,,,,,-198.59999418E-3,719.999969006E-3,
,,,-198.40000570E-3,-6.40000010,,,,,-198.40000570E-3,479.999989271E-3,
,,,-198.20000231E-3,-8.000000000,,,,,-198.20000231E-3,159.99999642E-3,
,,,-197.99999893E-3,-9.600000381,,,,,-197.99999893E-3,-159.99999642E-3,
,,,-197.79999554E-3,-11.1999998,,,,,-197.79999554E-3,-479.999989271E-3,
,,,-197.60000706E-3,-12.8000002,,,,,-197.60000706E-3,-799.999952316E-3,
,,,-197.40000367E-3,-15.1999998,,,,,-197.40000367E-3,-1.1200000,
,,,-197.20000029E-3,-16.8000011,,,,,-197.20000029E-3,-1.4399999,
,,,-196.99999690E-3,-20.0000000,,,,,-196.99999690E-3,-1.6799999,
,,,-196.80000842E-3,-22.39999962,,,,,-196.80000842E-3,-1.9200000,
,,,-196.60000503E-3,-26.39999962,,,,,-196.60000503E-3,-2.0000000,
,,,-196.40000165E-3,-29.60000038,,,,,-196.40000165E-3,-2.1599998,
,,,-196.19999826E-3,-32.79999924,,,,,-196.19999826E-3,-2.2400000,
,,,-195.99999487E-3,-36.00000000,,,,,-195.99999487E-3,-2.3199999,
,,,-195.80000639E-3,-39.20000076,,,,,-195.80000639E-3,-2.3999999,
,,,-195.60000300E-3,-41.60000229,,,,,-195.60000300E-3,-2.3999999,
,,,-195.39999962E-3,-44.00000000,,,,,-195.39999962E-3,-2.4800000,
,,,-195.19999623E-3,-46.40000153,,,,,-195.19999623E-3,-2.5599999,
,,,-195.00000775E-3,-48.00000000,,,,,-195.00000775E-3,-2.5599999,
,,,-194.80000436E-3,-50.40000153,,,,,-194.80000436E-3,-2.5599999,
,,,-194.60000098E-3,-51.20000076,,,,,-194.60000098E-3,-2.5599999,
,,,-194.39999759E-3,-52.00000000,,,,,-194.39999759E-3,-2.5599999,
,,,-194.19999421E-3,-52.79999924,,,,,-194.19999421E-3,-2.5599999,
,,,-194.00000572E-3,-53.60000229,,,,,-194.00000572E-3,-2.5599999,
,,,-193.80000234E-3,-53.60000229,,,,,-193.80000234E-3,-2.5599999,
,,,-193.59999895E-3,-52.79999924,,,,,-193.59999895E-3,-2.6399999,
,,,-193.39999557E-3,-52.00000000,,,,,-193.39999557E-3,-2.6399999,
,,,-193.20000708E-3,-52.00000000,,,,,-193.20000708E-3,-2.5599999,
,,,-193.00000370E-3,-50.40000153,,,,,-193.00000370E-3,-2.5599999,
,,,-192.80000031E-3,-48.79999924,,,,,-192.80000031E-3,-2.5599999,
,,,-192.59999692E-3,-47.20000076,,,,,-192.59999692E-3,-2.4800000,
,,,-192.40000844E-3,-45.60000229,,,,,-192.40000844E-3,-2.4800000,
,,,-192.20000505E-3,-44.00000000,,,,,-192.20000505E-3,-2.4800000,
,,,-192.00000167E-3,-41.60000229,,,,,-192.00000167E-3,-2.4800000,
,,,-191.79999828E-3,-38.40000153,,,,,-191.79999828E-3,-2.3999999,
,,,-191.59999490E-3,-36.79999924,,,,,-191.59999490E-3,-2.3199999,
,,,-191.40000641E-3,-34.40000153,,,,,-191.40000641E-3,-2.3199999,
,,,-191.20000303E-3,-32.00000000,,,,,-191.20000303E-3,-2.3199999,
,,,-190.99999964E-3,-28.00000000,,,,,-190.99999964E-3,-2.2400000,
